Guiao 2/Aula 1 P.TP/Parte 4/simulation/qsim/PEnc4_2Demo.msim.vcd
$comment
	File created using the following command:
		vcd file PEnc4_2Demo.msim.vcd -direction
$end
$date
	Thu Mar 24 14:44:47 2022
$end
$version
	ModelSim Version 2020.1
$end
$timescale
	1ps
$end

$scope module penc16_4_vhd_vec_tst $end
$var wire 1 ! input [15] $end
$var wire 1 " input [14] $end
$var wire 1 # input [13] $end
$var wire 1 $ input [12] $end
$var wire 1 % input [11] $end
$var wire 1 & input [10] $end
$var wire 1 ' input [9] $end
$var wire 1 ( input [8] $end
$var wire 1 ) input [7] $end
$var wire 1 * input [6] $end
$var wire 1 + input [5] $end
$var wire 1 , input [4] $end
$var wire 1 - input [3] $end
$var wire 1 . input [2] $end
$var wire 1 / input [1] $end
$var wire 1 0 input [0] $end
$var wire 1 1 output [4] $end
$var wire 1 2 output [3] $end
$var wire 1 3 output [2] $end
$var wire 1 4 output [1] $end
$var wire 1 5 output [0] $end

$scope module i1 $end
$var wire 1 6 gnd $end
$var wire 1 7 vcc $end
$var wire 1 8 unknown $end
$var wire 1 9 devoe $end
$var wire 1 : devclrn $end
$var wire 1 ; devpor $end
$var wire 1 < ww_devoe $end
$var wire 1 = ww_devclrn $end
$var wire 1 > ww_devpor $end
$var wire 1 ? ww_input [15] $end
$var wire 1 @ ww_input [14] $end
$var wire 1 A ww_input [13] $end
$var wire 1 B ww_input [12] $end
$var wire 1 C ww_input [11] $end
$var wire 1 D ww_input [10] $end
$var wire 1 E ww_input [9] $end
$var wire 1 F ww_input [8] $end
$var wire 1 G ww_input [7] $end
$var wire 1 H ww_input [6] $end
$var wire 1 I ww_input [5] $end
$var wire 1 J ww_input [4] $end
$var wire 1 K ww_input [3] $end
$var wire 1 L ww_input [2] $end
$var wire 1 M ww_input [1] $end
$var wire 1 N ww_input [0] $end
$var wire 1 O ww_output [4] $end
$var wire 1 P ww_output [3] $end
$var wire 1 Q ww_output [2] $end
$var wire 1 R ww_output [1] $end
$var wire 1 S ww_output [0] $end
$var wire 1 T \output[0]~output_o\ $end
$var wire 1 U \output[1]~output_o\ $end
$var wire 1 V \output[2]~output_o\ $end
$var wire 1 W \output[3]~output_o\ $end
$var wire 1 X \output[4]~output_o\ $end
$var wire 1 Y \input[2]~input_o\ $end
$var wire 1 Z \input[3]~input_o\ $end
$var wire 1 [ \input[0]~input_o\ $end
$var wire 1 \ \input[1]~input_o\ $end
$var wire 1 ] \output~0_combout\ $end
$var wire 1 ^ \input[10]~input_o\ $end
$var wire 1 _ \input[12]~input_o\ $end
$var wire 1 ` \input[14]~input_o\ $end
$var wire 1 a \output~1_combout\ $end
$var wire 1 b \input[11]~input_o\ $end
$var wire 1 c \input[8]~input_o\ $end
$var wire 1 d \input[9]~input_o\ $end
$var wire 1 e \output~2_combout\ $end
$var wire 1 f \input[13]~input_o\ $end
$var wire 1 g \input[15]~input_o\ $end
$var wire 1 h \output~3_combout\ $end
$var wire 1 i \input[4]~input_o\ $end
$var wire 1 j \input[6]~input_o\ $end
$var wire 1 k \input[5]~input_o\ $end
$var wire 1 l \input[7]~input_o\ $end
$var wire 1 m \output~4_combout\ $end
$var wire 1 n \output~5_combout\ $end
$var wire 1 o \output~6_combout\ $end
$var wire 1 p \output~7_combout\ $end
$var wire 1 q \output~8_combout\ $end
$var wire 1 r \output~9_combout\ $end
$var wire 1 s \output~10_combout\ $end
$var wire 1 t \output~14_combout\ $end
$var wire 1 u \output~11_combout\ $end
$var wire 1 v \output~12_combout\ $end
$var wire 1 w \output~13_combout\ $end
$var wire 1 x \output~17_combout\ $end
$var wire 1 y \output~18_combout\ $end
$var wire 1 z \output~15_combout\ $end
$var wire 1 { \output~16_combout\ $end
$var wire 1 | \ALT_INV_output~3_combout\ $end
$upscope $end
$upscope $end
$enddefinitions $end
#0
$dumpvars
06
17
x8
19
1:
1;
1<
1=
1>
0T
0U
0V
0W
0X
0Y
0Z
0[
0\
0]
0^
0_
0`
1a
0b
0c
0d
1e
0f
0g
1h
0i
0j
0k
0l
1m
0n
0o
0p
0q
0r
0s
0t
1u
0v
0w
0x
0y
0z
0{
0|
0!
0"
0#
0$
0%
0&
0'
0(
0)
0*
0+
0,
0-
0.
0/
00
0?
0@
0A
0B
0C
0D
0E
0F
0G
0H
0I
0J
0K
0L
0M
0N
0O
0P
0Q
0R
0S
01
02
03
04
05
$end
#10000
10
1N
1[
1]
1n
1T
1S
15
#20000
00
1/
0N
1M
1\
0[
1q
1r
1s
1U
1R
14
#30000
10
1N
1[
#40000
00
0/
1.
0N
0M
1L
1Y
0\
0[
0q
1v
1w
0r
0s
1x
1y
0U
0R
1V
04
1Q
13
#50000
10
1N
1[
#60000
00
1/
0N
1M
1\
0[
#70000
10
1N
1[
#80000
00
0/
0.
1-
0N
0M
0L
1K
1Z
0Y
0\
0[
1q
1r
1s
1U
1R
14
#90000
10
1N
1[
#100000
00
1/
0N
1M
1\
0[
#110000
10
1N
1[
#120000
00
0/
1.
0N
0M
1L
1Y
0\
0[
#130000
10
1N
1[
#140000
00
1/
0N
1M
1\
0[
#150000
10
1N
1[
#160000
00
0/
0.
0-
1,
0N
0M
0L
0K
1J
1i
0Z
0Y
0\
0[
0]
0m
0q
0v
0w
0r
1{
0s
0x
0y
1W
1P
0U
12
0R
0V
04
0Q
03
#170000
10
1N
1[
1]
#180000
00
1/
0N
1M
1\
0[
#190000
10
1N
1[
#200000
00
0/
1.
0N
0M
1L
1Y
0\
0[
#210000
10
1N
1[
#220000
00
1/
0N
1M
1\
0[
#230000
10
1N
1[
#240000
00
0/
0.
1-
0N
0M
0L
1K
1Z
0Y
0\
0[
#250000
10
1N
1[
#260000
00
1/
0N
1M
1\
0[
#270000
10
1N
1[
#280000
00
0/
1.
0N
0M
1L
1Y
0\
0[
#290000
10
1N
1[
#300000
00
1/
0N
1M
1\
0[
#310000
10
1N
1[
#320000
00
0/
0.
0-
0,
1+
0N
0M
0L
0K
0J
1I
1k
0i
0Z
0Y
0\
0[
0]
1r
1s
1U
1R
14
#330000
10
1N
1[
1]
#340000
00
1/
0N
1M
1\
0[
1q
#350000
10
1N
1[
#360000
00
0/
1.
0N
0M
1L
1Y
0\
0[
0q
#370000
10
1N
1[
#380000
00
1/
0N
1M
1\
0[
#390000
10
1N
1[
#400000
00
0/
0.
1-
0N
0M
0L
1K
1Z
0Y
0\
0[
1q
#410000
10
1N
1[
#420000
00
1/
0N
1M
1\
0[
#430000
10
1N
1[
#440000
00
0/
1.
0N
0M
1L
1Y
0\
0[
#450000
10
1N
1[
#460000
00
1/
0N
1M
1\
0[
#470000
10
1N
1[
#480000
00
0/
0.
0-
1,
0N
0M
0L
0K
1J
1i
0Z
0Y
0\
0[
0]
0q
#490000
10
1N
1[
1]
#500000
00
1/
0N
1M
1\
0[
#510000
10
1N
1[
#520000
00
0/
1.
0N
0M
1L
1Y
0\
0[
#530000
10
1N
1[
#540000
00
1/
0N
1M
1\
0[
#550000
10
1N
1[
#560000
00
0/
0.
1-
0N
0M
0L
1K
1Z
0Y
0\
0[
#570000
10
1N
1[
#580000
00
1/
0N
1M
1\
0[
#590000
10
1N
1[
#600000
00
0/
1.
0N
0M
1L
1Y
0\
0[
#610000
10
1N
1[
#620000
00
1/
0N
1M
1\
0[
#630000
10
1N
1[
#640000
00
0/
0.
0-
0,
0+
1*
0N
0M
0L
0K
0J
0I
1H
1j
0k
0i
0Z
0Y
0\
0[
0]
0r
1w
1x
0s
1y
0U
0R
1V
04
1Q
13
#650000
10
1N
1[
1]
#660000
00
1/
0N
1M
1\
0[
1q
#670000
10
1N
1[
#680000
00
0/
1.
0N
0M
1L
1Y
0\
0[
0q
1v
#690000
10
1N
1[
#700000
00
1/
0N
1M
1\
0[
#710000
10
1N
1[
#720000
00
0/
0.
1-
0N
0M
0L
1K
1Z
0Y
0\
0[
1q
#730000
10
1N
1[
#740000
00
1/
0N
1M
1\
0[
#750000
10
1N
1[
#760000
00
0/
1.
0N
0M
1L
1Y
0\
0[
#770000
10
1N
1[
#780000
00
1/
0N
1M
1\
0[
#790000
10
1N
1[
#800000
00
0/
0.
0-
1,
0N
0M
0L
0K
1J
1i
0Z
0Y
0\
0[
0]
0q
0v
#810000
10
1N
1[
1]
#820000
00
1/
0N
1M
1\
0[
#830000
10
1N
1[
#840000
00
0/
1.
0N
0M
1L
1Y
0\
0[
#850000
10
1N
1[
#860000
00
1/
0N
1M
1\
0[
#870000
10
1N
1[
#880000
00
0/
0.
1-
0N
0M
0L
1K
1Z
0Y
0\
0[
#890000
10
1N
1[
#900000
00
1/
0N
1M
1\
0[
#910000
10
1N
1[
#920000
00
0/
1.
0N
0M
1L
1Y
0\
0[
#930000
10
1N
1[
#940000
00
1/
0N
1M
1\
0[
#950000
10
1N
1[
#960000
00
0/
0.
0-
0,
1+
0N
0M
0L
0K
0J
1I
1k
0i
0Z
0Y
0\
0[
0]
#970000
10
1N
1[
1]
#980000
00
1/
0N
1M
1\
0[
1q
#990000
10
1N
1[
#1000000
00
0/
1.
0N
0M
1L
1Y
0\
0[
0q
#1010000
10
1N
1[
#1020000
00
1/
0N
1M
1\
0[
#1030000
10
1N
1[
#1040000
00
0/
0.
1-
0N
0M
0L
1K
1Z
0Y
0\
0[
1q
#1050000
10
1N
1[
#1060000
00
1/
0N
1M
1\
0[
#1070000
10
1N
1[
#1080000
00
0/
1.
0N
0M
1L
1Y
0\
0[
#1090000
10
1N
1[
#1100000
00
1/
0N
1M
1\
0[
#1110000
10
1N
1[
#1120000
00
0/
0.
0-
1,
0N
0M
0L
0K
1J
1i
0Z
0Y
0\
0[
0]
0q
#1130000
10
1N
1[
1]
#1140000
00
1/
0N
1M
1\
0[
#1150000
10
1N
1[
#1160000
00
0/
1.
0N
0M
1L
1Y
0\
0[
#1170000
10
1N
1[
#1180000
00
1/
0N
1M
1\
0[
#1190000
10
1N
1[
#1200000
00
0/
0.
1-
0N
0M
0L
1K
1Z
0Y
0\
0[
#1210000
10
1N
1[
#1220000
00
1/
0N
1M
1\
0[
#1230000
10
1N
1[
#1240000
00
0/
1.
0N
0M
1L
1Y
0\
0[
#1250000
10
1N
1[
#1260000
00
1/
0N
1M
1\
0[
#1270000
10
1N
1[
#1280000
00
0/
0.
0-
0,
0+
0*
1)
0N
0M
0L
0K
0J
0I
0H
1G
1l
0j
0k
0i
0Z
0Y
0\
0[
0]
1r
1s
1U
1R
14
#1290000
10
1N
1[
1]
#1300000
00
1/
0N
1M
1\
0[
1q
#1310000
10
1N
1[
#1320000
00
0/
1.
0N
0M
1L
1Y
0\
0[
0q
1v
#1330000
10
1N
1[
#1340000
00
1/
0N
1M
1\
0[
#1350000
10
1N
1[
#1360000
00
0/
0.
1-
0N
0M
0L
1K
1Z
0Y
0\
0[
1q
#1370000
10
1N
1[
#1380000
00
1/
0N
1M
1\
0[
#1390000
10
1N
1[
#1400000
00
0/
1.
0N
0M
1L
1Y
0\
0[
#1410000
10
1N
1[
#1420000
00
1/
0N
1M
1\
0[
#1430000
10
1N
1[
#1440000
00
0/
0.
0-
1,
0N
0M
0L
0K
1J
1i
0Z
0Y
0\
0[
0]
0q
0v
#1450000
10
1N
1[
1]
#1460000
00
1/
0N
1M
1\
0[
#1470000
10
1N
1[
#1480000
00
0/
1.
0N
0M
1L
1Y
0\
0[
#1490000
10
1N
1[
#1500000
00
1/
0N
1M
1\
0[
#1510000
10
1N
1[
#1520000
00
0/
0.
1-
0N
0M
0L
1K
1Z
0Y
0\
0[
#1530000
10
1N
1[
#1540000
00
1/
0N
1M
1\
0[
#1550000
10
1N
1[
#1560000
00
0/
1.
0N
0M
1L
1Y
0\
0[
#1570000
10
1N
1[
#1580000
00
1/
0N
1M
1\
0[
#1590000
10
1N
1[
#1600000
00
0/
0.
0-
0,
1+
0N
0M
0L
0K
0J
1I
1k
0i
0Z
0Y
0\
0[
0]
#1610000
10
1N
1[
1]
#1620000
00
1/
0N
1M
1\
0[
1q
#1630000
10
1N
1[
#1640000
00
0/
1.
0N
0M
1L
1Y
0\
0[
0q
#1650000
10
1N
1[
#1660000
00
1/
0N
1M
1\
0[
#1670000
10
1N
1[
#1680000
00
0/
0.
1-
0N
0M
0L
1K
1Z
0Y
0\
0[
1q
#1690000
10
1N
1[
#1700000
00
1/
0N
1M
1\
0[
#1710000
10
1N
1[
#1720000
00
0/
1.
0N
0M
1L
1Y
0\
0[
#1730000
10
1N
1[
#1740000
00
1/
0N
1M
1\
0[
#1750000
10
1N
1[
#1760000
00
0/
0.
0-
1,
0N
0M
0L
0K
1J
1i
0Z
0Y
0\
0[
0]
0q
#1770000
10
1N
1[
1]
#1780000
00
1/
0N
1M
1\
0[
#1790000
10
1N
1[
#1800000
00
0/
1.
0N
0M
1L
1Y
0\
0[
#1810000
10
1N
1[
#1820000
00
1/
0N
1M
1\
0[
#1830000
10
1N
1[
#1840000
00
0/
0.
1-
0N
0M
0L
1K
1Z
0Y
0\
0[
#1850000
10
1N
1[
#1860000
00
1/
0N
1M
1\
0[
#1870000
10
1N
1[
#1880000
00
0/
1.
0N
0M
1L
1Y
0\
0[
#1890000
10
1N
1[
#1900000
00
1/
0N
1M
1\
0[
#1910000
10
1N
1[
#1920000
00
0/
0.
0-
0,
0+
1*
0N
0M
0L
0K
0J
0I
1H
1j
0k
0i
0Z
0Y
0\
0[
0]
#1930000
10
1N
1[
1]
#1940000
00
1/
0N
1M
1\
0[
1q
#1950000
10
1N
1[
#1960000
00
0/
1.
0N
0M
1L
1Y
0\
0[
0q
1v
#1970000
10
1N
1[
#1980000
00
1/
0N
1M
1\
0[
#1990000
10
1N
1[
#2000000
00
0/
0.
1-
0N
0M
0L
1K
1Z
0Y
0\
0[
1q
#2010000
10
1N
1[
#2020000
00
1/
0N
1M
1\
0[
#2030000
10
1N
1[
#2040000
00
0/
1.
0N
0M
1L
1Y
0\
0[
#2050000
10
1N
1[
#2060000
00
1/
0N
1M
1\
0[
#2070000
10
1N
1[
#2080000
00
0/
0.
0-
1,
0N
0M
0L
0K
1J
1i
0Z
0Y
0\
0[
0]
0q
0v
#2090000
10
1N
1[
1]
#2100000
00
1/
0N
1M
1\
0[
#2110000
10
1N
1[
#2120000
00
0/
1.
0N
0M
1L
1Y
0\
0[
#2130000
10
1N
1[
#2140000
00
1/
0N
1M
1\
0[
#2150000
10
1N
1[
#2160000
00
0/
0.
1-
0N
0M
0L
1K
1Z
0Y
0\
0[
#2170000
10
1N
1[
#2180000
00
1/
0N
1M
1\
0[
#2190000
10
1N
1[
#2200000
00
0/
1.
0N
0M
1L
1Y
0\
0[
#2210000
10
1N
1[
#2220000
00
1/
0N
1M
1\
0[
#2230000
10
1N
1[
#2240000
00
0/
0.
0-
0,
1+
0N
0M
0L
0K
0J
1I
1k
0i
0Z
0Y
0\
0[
0]
#2250000
10
1N
1[
1]
#2260000
00
1/
0N
1M
1\
0[
1q
#2270000
10
1N
1[
#2280000
00
0/
1.
0N
0M
1L
1Y
0\
0[
0q
#2290000
10
1N
1[
#2300000
00
1/
0N
1M
1\
0[
#2310000
10
1N
1[
#2320000
00
0/
0.
1-
0N
0M
0L
1K
1Z
0Y
0\
0[
1q
#2330000
10
1N
1[
#2340000
00
1/
0N
1M
1\
0[
#2350000
10
1N
1[
#2360000
00
0/
1.
0N
0M
1L
1Y
0\
0[
#2370000
10
1N
1[
#2380000
00
1/
0N
1M
1\
0[
#2390000
10
1N
1[
#2400000
00
0/
0.
0-
1,
0N
0M
0L
0K
1J
1i
0Z
0Y
0\
0[
0]
0q
#2410000
10
1N
1[
1]
#2420000
00
1/
0N
1M
1\
0[
#2430000
10
1N
1[
#2440000
00
0/
1.
0N
0M
1L
1Y
0\
0[
#2450000
10
1N
1[
#2460000
00
1/
0N
1M
1\
0[
#2470000
10
1N
1[
#2480000
00
0/
0.
1-
0N
0M
0L
1K
1Z
0Y
0\
0[
#2490000
10
1N
1[
#2500000
00
1/
0N
1M
1\
0[
#2510000
10
1N
1[
#2520000
00
0/
1.
0N
0M
1L
1Y
0\
0[
#2530000
10
1N
1[
#2540000
00
1/
0N
1M
1\
0[
#2550000
10
1N
1[
#2560000
00
0/
0.
0-
0,
0+
0*
0)
1(
0N
0M
0L
0K
0J
0I
0H
0G
1F
1c
0l
0j
0k
0i
0Z
0Y
0\
0[
0]
1m
0r
0w
0e
0s
0u
0h
0x
0{
0n
1|
0y
1n
0U
0R
0T
0W
04
1X
0S
0P
1T
0V
1O
05
02
1S
0Q
11
15
03
#2570000
10
1N
1[
1]
#2580000
00
1/
0N
1M
1\
0[
1q
1r
#2590000
10
1N
1[
#2600000
00
0/
1.
0N
0M
1L
1Y
0\
0[
0q
1v
0r
#2610000
10
1N
1[
#2620000
00
1/
0N
1M
1\
0[
#2630000
10
1N
1[
#2640000
00
0/
0.
1-
0N
0M
0L
1K
1Z
0Y
0\
0[
1q
1r
#2650000
10
1N
1[
#2660000
00
1/
0N
1M
1\
0[
#2670000
10
1N
1[
#2680000
00
0/
1.
0N
0M
1L
1Y
0\
0[
#2690000
10
1N
1[
#2700000
00
1/
0N
1M
1\
0[
#2710000
10
1N
1[
#2720000
00
0/
0.
0-
1,
0N
0M
0L
0K
1J
1i
0Z
0Y
0\
0[
0]
0m
0q
0v
0r
#2730000
10
1N
1[
1]
#2740000
00
1/
0N
1M
1\
0[
#2750000
10
1N
1[
#2760000
00
0/
1.
0N
0M
1L
1Y
0\
0[
#2770000
10
1N
1[
#2780000
00
1/
0N
1M
1\
0[
#2790000
10
1N
1[
#2800000
00
0/
0.
1-
0N
0M
0L
1K
1Z
0Y
0\
0[
#2810000
10
1N
1[
#2820000
00
1/
0N
1M
1\
0[
#2830000
10
1N
1[
#2840000
00
0/
1.
0N
0M
1L
1Y
0\
0[
#2850000
10
1N
1[
#2860000
00
1/
0N
1M
1\
0[
#2870000
10
1N
1[
#2880000
00
0/
0.
0-
0,
1+
0N
0M
0L
0K
0J
1I
1k
0i
0Z
0Y
0\
0[
0]
1r
#2890000
10
1N
1[
1]
#2900000
00
1/
0N
1M
1\
0[
1q
#2910000
10
1N
1[
#2920000
00
0/
1.
0N
0M
1L
1Y
0\
0[
0q
#2930000
10
1N
1[
#2940000
00
1/
0N
1M
1\
0[
#2950000
10
1N
1[
#2960000
00
0/
0.
1-
0N
0M
0L
1K
1Z
0Y
0\
0[
1q
#2970000
10
1N
1[
#2980000
00
1/
0N
1M
1\
0[
#2990000
10
1N
1[
#3000000
00
0/
1.
0N
0M
1L
1Y
0\
0[
#3010000
10
1N
1[
#3020000
00
1/
0N
1M
1\
0[
#3030000
10
1N
1[
#3040000
00
0/
0.
0-
1,
0N
0M
0L
0K
1J
1i
0Z
0Y
0\
0[
0]
0q
#3050000
10
1N
1[
1]
#3060000
00
1/
0N
1M
1\
0[
#3070000
10
1N
1[
#3080000
00
0/
1.
0N
0M
1L
1Y
0\
0[
#3090000
10
1N
1[
#3100000
00
1/
0N
1M
1\
0[
#3110000
10
1N
1[
#3120000
00
0/
0.
1-
0N
0M
0L
1K
1Z
0Y
0\
0[
#3130000
10
1N
1[
#3140000
00
1/
0N
1M
1\
0[
#3150000
10
1N
1[
#3160000
00
0/
1.
0N
0M
1L
1Y
0\
0[
#3170000
10
1N
1[
#3180000
00
1/
0N
1M
1\
0[
#3190000
10
1N
1[
#3200000
00
0/
0.
0-
0,
0+
1*
0N
0M
0L
0K
0J
0I
1H
1j
0k
0i
0Z
0Y
0\
0[
0]
0r
#3210000
10
1N
1[
1]
#3220000
00
1/
0N
1M
1\
0[
1q
#3230000
10
1N
1[
#3240000
00
0/
1.
0N
0M
1L
1Y
0\
0[
0q
1v
#3250000
10
1N
1[
#3260000
00
1/
0N
1M
1\
0[
#3270000
10
1N
1[
#3280000
00
0/
0.
1-
0N
0M
0L
1K
1Z
0Y
0\
0[
1q
#3290000
10
1N
1[
#3300000
00
1/
0N
1M
1\
0[
#3310000
10
1N
1[
#3320000
00
0/
1.
0N
0M
1L
1Y
0\
0[
#3330000
10
1N
1[
#3340000
00
1/
0N
1M
1\
0[
#3350000
10
1N
1[
#3360000
00
0/
0.
0-
1,
0N
0M
0L
0K
1J
1i
0Z
0Y
0\
0[
0]
0q
0v
#3370000
10
1N
1[
1]
#3380000
00
1/
0N
1M
1\
0[
#3390000
10
1N
1[
#3400000
00
0/
1.
0N
0M
1L
1Y
0\
0[
#3410000
10
1N
1[
#3420000
00
1/
0N
1M
1\
0[
#3430000
10
1N
1[
#3440000
00
0/
0.
1-
0N
0M
0L
1K
1Z
0Y
0\
0[
#3450000
10
1N
1[
#3460000
00
1/
0N
1M
1\
0[
#3470000
10
1N
1[
#3480000
00
0/
1.
0N
0M
1L
1Y
0\
0[
#3490000
10
1N
1[
#3500000
00
1/
0N
1M
1\
0[
#3510000
10
1N
1[
#3520000
00
0/
0.
0-
0,
1+
0N
0M
0L
0K
0J
1I
1k
0i
0Z
0Y
0\
0[
0]
#3530000
10
1N
1[
1]
#3540000
00
1/
0N
1M
1\
0[
1q
#3550000
10
1N
1[
#3560000
00
0/
1.
0N
0M
1L
1Y
0\
0[
0q
#3570000
10
1N
1[
#3580000
00
1/
0N
1M
1\
0[
#3590000
10
1N
1[
#3600000
00
0/
0.
1-
0N
0M
0L
1K
1Z
0Y
0\
0[
1q
#3610000
10
1N
1[
#3620000
00
1/
0N
1M
1\
0[
#3630000
10
1N
1[
#3640000
00
0/
1.
0N
0M
1L
1Y
0\
0[
#3650000
10
1N
1[
#3660000
00
1/
0N
1M
1\
0[
#3670000
10
1N
1[
#3680000
00
0/
0.
0-
1,
0N
0M
0L
0K
1J
1i
0Z
0Y
0\
0[
0]
0q
#3690000
10
1N
1[
1]
#3700000
00
1/
0N
1M
1\
0[
#3710000
10
1N
1[
#3720000
00
0/
1.
0N
0M
1L
1Y
0\
0[
#3730000
10
1N
1[
#3740000
00
1/
0N
1M
1\
0[
#3750000
10
1N
1[
#3760000
00
0/
0.
1-
0N
0M
0L
1K
1Z
0Y
0\
0[
#3770000
10
1N
1[
#3780000
00
1/
0N
1M
1\
0[
#3790000
10
1N
1[
#3800000
00
0/
1.
0N
0M
1L
1Y
0\
0[
#3810000
10
1N
1[
#3820000
00
1/
0N
1M
1\
0[
#3830000
10
1N
1[
#3840000
00
0/
0.
0-
0,
0+
0*
1)
0N
0M
0L
0K
0J
0I
0H
1G
1l
0j
0k
0i
0Z
0Y
0\
0[
0]
1r
#3850000
10
1N
1[
1]
#3860000
00
1/
0N
1M
1\
0[
1q
#3870000
10
1N
1[
#3880000
00
0/
1.
0N
0M
1L
1Y
0\
0[
0q
1v
#3890000
10
1N
1[
#3900000
00
1/
0N
1M
1\
0[
#3910000
10
1N
1[
#3920000
00
0/
0.
1-
0N
0M
0L
1K
1Z
0Y
0\
0[
1q
#3930000
10
1N
1[
#3940000
00
1/
0N
1M
1\
0[
#3950000
10
1N
1[
#3960000
00
0/
1.
0N
0M
1L
1Y
0\
0[
#3970000
10
1N
1[
#3980000
00
1/
0N
1M
1\
0[
#3990000
10
1N
1[
#4000000
00
0/
0.
0-
1,
0N
0M
0L
0K
1J
1i
0Z
0Y
0\
0[
0]
0q
0v
#4010000
10
1N
1[
1]
#4020000
00
1/
0N
1M
1\
0[
#4030000
10
1N
1[
#4040000
00
0/
1.
0N
0M
1L
1Y
0\
0[
#4050000
10
1N
1[
#4060000
00
1/
0N
1M
1\
0[
#4070000
10
1N
1[
#4080000
00
0/
0.
1-
0N
0M
0L
1K
1Z
0Y
0\
0[
#4090000
10
1N
1[
#4100000
00
1/
0N
1M
1\
0[
#4110000
10
1N
1[
#4120000
00
0/
1.
0N
0M
1L
1Y
0\
0[
#4130000
10
1N
1[
#4140000
00
1/
0N
1M
1\
0[
#4150000
10
1N
1[
#4160000
00
0/
0.
0-
0,
1+
0N
0M
0L
0K
0J
1I
1k
0i
0Z
0Y
0\
0[
0]
#4170000
10
1N
1[
1]
#4180000
00
1/
0N
1M
1\
0[
1q
#4190000
10
1N
1[
#4200000
00
0/
1.
0N
0M
1L
1Y
0\
0[
0q
#4210000
10
1N
1[
#4220000
00
1/
0N
1M
1\
0[
#4230000
10
1N
1[
#4240000
00
0/
0.
1-
0N
0M
0L
1K
1Z
0Y
0\
0[
1q
#4250000
10
1N
1[
#4260000
00
1/
0N
1M
1\
0[
#4270000
10
1N
1[
#4280000
00
0/
1.
0N
0M
1L
1Y
0\
0[
#4290000
10
1N
1[
#4300000
00
1/
0N
1M
1\
0[
#4310000
10
1N
1[
#4320000
00
0/
0.
0-
1,
0N
0M
0L
0K
1J
1i
0Z
0Y
0\
0[
0]
0q
#4330000
10
1N
1[
1]
#4340000
00
1/
0N
1M
1\
0[
#4350000
10
1N
1[
#4360000
00
0/
1.
0N
0M
1L
1Y
0\
0[
#4370000
10
1N
1[
#4380000
00
1/
0N
1M
1\
0[
#4390000
10
1N
1[
#4400000
00
0/
0.
1-
0N
0M
0L
1K
1Z
0Y
0\
0[
#4410000
10
1N
1[
#4420000
00
1/
0N
1M
1\
0[
#4430000
10
1N
1[
#4440000
00
0/
1.
0N
0M
1L
1Y
0\
0[
#4450000
10
1N
1[
#4460000
00
1/
0N
1M
1\
0[
#4470000
10
1N
1[
#4480000
00
0/
0.
0-
0,
0+
1*
0N
0M
0L
0K
0J
0I
1H
1j
0k
0i
0Z
0Y
0\
0[
0]
#4490000
10
1N
1[
1]
#4500000
00
1/
0N
1M
1\
0[
1q
#4510000
10
1N
1[
#4520000
00
0/
1.
0N
0M
1L
1Y
0\
0[
0q
1v
#4530000
10
1N
1[
#4540000
00
1/
0N
1M
1\
0[
#4550000
10
1N
1[
#4560000
00
0/
0.
1-
0N
0M
0L
1K
1Z
0Y
0\
0[
1q
#4570000
10
1N
1[
#4580000
00
1/
0N
1M
1\
0[
#4590000
10
1N
1[
#4600000
00
0/
1.
0N
0M
1L
1Y
0\
0[
#4610000
10
1N
1[
#4620000
00
1/
0N
1M
1\
0[
#4630000
10
1N
1[
#4640000
00
0/
0.
0-
1,
0N
0M
0L
0K
1J
1i
0Z
0Y
0\
0[
0]
0q
0v
#4650000
10
1N
1[
1]
#4660000
00
1/
0N
1M
1\
0[
#4670000
10
1N
1[
#4680000
00
0/
1.
0N
0M
1L
1Y
0\
0[
#4690000
10
1N
1[
#4700000
00
1/
0N
1M
1\
0[
#4710000
10
1N
1[
#4720000
00
0/
0.
1-
0N
0M
0L
1K
1Z
0Y
0\
0[
#4730000
10
1N
1[
#4740000
00
1/
0N
1M
1\
0[
#4750000
10
1N
1[
#4760000
00
0/
1.
0N
0M
1L
1Y
0\
0[
#4770000
10
1N
1[
#4780000
00
1/
0N
1M
1\
0[
#4790000
10
1N
1[
#4800000
00
0/
0.
0-
0,
1+
0N
0M
0L
0K
0J
1I
1k
0i
0Z
0Y
0\
0[
0]
#4810000
10
1N
1[
1]
#4820000
00
1/
0N
1M
1\
0[
1q
#4830000
10
1N
1[
#4840000
00
0/
1.
0N
0M
1L
1Y
0\
0[
0q
#4850000
10
1N
1[
#4860000
00
1/
0N
1M
1\
0[
#4870000
10
1N
1[
#4880000
00
0/
0.
1-
0N
0M
0L
1K
1Z
0Y
0\
0[
1q
#4890000
10
1N
1[
#4900000
00
1/
0N
1M
1\
0[
#4910000
10
1N
1[
#4920000
00
0/
1.
0N
0M
1L
1Y
0\
0[
#4930000
10
1N
1[
#4940000
00
1/
0N
1M
1\
0[
#4950000
10
1N
1[
#4960000
00
0/
0.
0-
1,
0N
0M
0L
0K
1J
1i
0Z
0Y
0\
0[
0]
0q
#4970000
10
1N
1[
1]
#4980000
00
1/
0N
1M
1\
0[
#4990000
10
1N
1[
