Guiao6/Parte2/simulation/qsim/SeqShiftUnit_Demo.msim.vcd
$comment
	File created using the following command:
		vcd file SeqShiftUnit_Demo.msim.vcd -direction
$end
$date
	Thu Apr 21 11:44:16 2022
$end
$version
	ModelSim Version 2020.1
$end
$timescale
	1ps
$end

$scope module seqshiftunit_vhd_vec_tst $end
$var wire 1 ! clk $end
$var wire 1 " dataIn [7] $end
$var wire 1 # dataIn [6] $end
$var wire 1 $ dataIn [5] $end
$var wire 1 % dataIn [4] $end
$var wire 1 & dataIn [3] $end
$var wire 1 ' dataIn [2] $end
$var wire 1 ( dataIn [1] $end
$var wire 1 ) dataIn [0] $end
$var wire 1 * dataOut [7] $end
$var wire 1 + dataOut [6] $end
$var wire 1 , dataOut [5] $end
$var wire 1 - dataOut [4] $end
$var wire 1 . dataOut [3] $end
$var wire 1 / dataOut [2] $end
$var wire 1 0 dataOut [1] $end
$var wire 1 1 dataOut [0] $end
$var wire 1 2 dirLeft $end
$var wire 1 3 loadEn $end
$var wire 1 4 rotate $end
$var wire 1 5 shArith $end
$var wire 1 6 siLeft $end
$var wire 1 7 siRight $end

$scope module i1 $end
$var wire 1 8 gnd $end
$var wire 1 9 vcc $end
$var wire 1 : unknown $end
$var wire 1 ; devoe $end
$var wire 1 < devclrn $end
$var wire 1 = devpor $end
$var wire 1 > ww_devoe $end
$var wire 1 ? ww_devclrn $end
$var wire 1 @ ww_devpor $end
$var wire 1 A ww_clk $end
$var wire 1 B ww_dataIn [7] $end
$var wire 1 C ww_dataIn [6] $end
$var wire 1 D ww_dataIn [5] $end
$var wire 1 E ww_dataIn [4] $end
$var wire 1 F ww_dataIn [3] $end
$var wire 1 G ww_dataIn [2] $end
$var wire 1 H ww_dataIn [1] $end
$var wire 1 I ww_dataIn [0] $end
$var wire 1 J ww_siLeft $end
$var wire 1 K ww_siRight $end
$var wire 1 L ww_loadEn $end
$var wire 1 M ww_rotate $end
$var wire 1 N ww_dirLeft $end
$var wire 1 O ww_shArith $end
$var wire 1 P ww_dataOut [7] $end
$var wire 1 Q ww_dataOut [6] $end
$var wire 1 R ww_dataOut [5] $end
$var wire 1 S ww_dataOut [4] $end
$var wire 1 T ww_dataOut [3] $end
$var wire 1 U ww_dataOut [2] $end
$var wire 1 V ww_dataOut [1] $end
$var wire 1 W ww_dataOut [0] $end
$var wire 1 X \dataOut[0]~output_o\ $end
$var wire 1 Y \dataOut[1]~output_o\ $end
$var wire 1 Z \dataOut[2]~output_o\ $end
$var wire 1 [ \dataOut[3]~output_o\ $end
$var wire 1 \ \dataOut[4]~output_o\ $end
$var wire 1 ] \dataOut[5]~output_o\ $end
$var wire 1 ^ \dataOut[6]~output_o\ $end
$var wire 1 _ \dataOut[7]~output_o\ $end
$var wire 1 ` \clk~input_o\ $end
$var wire 1 a \dirLeft~input_o\ $end
$var wire 1 b \rotate~input_o\ $end
$var wire 1 c \siRight~input_o\ $end
$var wire 1 d \shArith~input_o\ $end
$var wire 1 e \s_shiftReg[7]~9_combout\ $end
$var wire 1 f \s_shiftReg[7]~10_combout\ $end
$var wire 1 g \s_shiftReg[7]~7_combout\ $end
$var wire 1 h \dataIn[7]~input_o\ $end
$var wire 1 i \loadEn~input_o\ $end
$var wire 1 j \s_shiftReg[6]~6_combout\ $end
$var wire 1 k \dataIn[6]~input_o\ $end
$var wire 1 l \s_shiftReg[5]~5_combout\ $end
$var wire 1 m \dataIn[5]~input_o\ $end
$var wire 1 n \s_shiftReg[4]~4_combout\ $end
$var wire 1 o \dataIn[4]~input_o\ $end
$var wire 1 p \s_shiftReg[3]~3_combout\ $end
$var wire 1 q \dataIn[3]~input_o\ $end
$var wire 1 r \s_shiftReg[2]~2_combout\ $end
$var wire 1 s \dataIn[2]~input_o\ $end
$var wire 1 t \s_shiftReg[1]~1_combout\ $end
$var wire 1 u \dataIn[1]~input_o\ $end
$var wire 1 v \siLeft~input_o\ $end
$var wire 1 w \s_shiftReg~8_combout\ $end
$var wire 1 x \s_shiftReg[0]~0_combout\ $end
$var wire 1 y \dataIn[0]~input_o\ $end
$var wire 1 z s_shiftReg [7] $end
$var wire 1 { s_shiftReg [6] $end
$var wire 1 | s_shiftReg [5] $end
$var wire 1 } s_shiftReg [4] $end
$var wire 1 ~ s_shiftReg [3] $end
$var wire 1 !! s_shiftReg [2] $end
$var wire 1 "! s_shiftReg [1] $end
$var wire 1 #! s_shiftReg [0] $end
$var wire 1 $! \ALT_INV_clk~input_o\ $end
$upscope $end
$upscope $end
$enddefinitions $end
#0
$dumpvars
0!
12
13
14
15
16
17
08
19
x:
1;
1<
1=
1>
1?
1@
0A
1J
1K
1L
1M
1N
1O
0X
0Y
0Z
0[
0\
0]
0^
0_
0`
1a
1b
1c
1d
1e
0f
0g
0h
1i
0j
0k
0l
1m
0n
1o
0p
0q
0r
0s
0t
0u
1v
0w
0x
0y
1$!
0"
0#
1$
1%
0&
0'
0(
0)
0B
0C
1D
1E
0F
0G
0H
0I
0P
0Q
0R
0S
0T
0U
0V
0W
0z
0{
0|
0}
0~
0!!
0"!
0#!
0*
0+
0,
0-
0.
0/
00
01
$end
#8000
1!
1A
1`
0$!
#10000
0!
0A
0`
1$!
1|
1}
1l
1j
1\
1]
1S
1R
1-
1,
#18000
1!
1A
1`
0$!
#20000
0!
1#
0%
1&
1(
02
03
04
05
0A
1H
1F
0E
1C
0N
0L
0M
0O
0d
0b
0i
0a
1k
0o
1q
1u
0`
1$!
0j
0l
1n
1p
1f
1w
1{
0}
1g
0p
1l
0\
1^
0S
1Q
0-
1+
#28000
1!
1A
1`
0$!
#30000
0!
0A
0`
1$!
1z
0{
1}
1p
0l
1j
1\
0^
1_
1S
0Q
1P
1-
0+
1*
#38000
1!
1A
1`
0$!
#40000
0!
0#
0(
12
13
1'
07
0A
0H
1G
0C
1N
1L
0K
0c
1i
1a
0k
1s
0u
0`
1$!
0g
1l
0n
0p
1x
0e
0z
0}
1~
1!!
1n
0l
1p
1Z
1[
0\
0_
1U
1T
0S
0P
1/
1.
0-
0*
#48000
1!
1A
1`
0$!
#50000
0!
0A
0`
1$!
#58000
1!
1A
1`
0$!
#60000
0!
1(
02
03
0'
0&
15
0$
1)
0A
1I
1H
0G
0F
0D
0N
0L
1O
1d
0i
0a
0m
0q
0s
1u
1y
0`
1$!
0j
0p
1r
1t
0x
0w
1{
0|
1}
0!!
1#!
0t
1p
0n
1l
1X
0Z
1\
0]
1^
1W
0U
1S
0R
1Q
11
0/
1-
0,
1+
#68000
1!
1A
1`
0$!
#70000
0!
0A
0`
1$!
0{
1|
0}
1!!
0#!
1t
0p
1n
0l
0X
1Z
0\
1]
0^
0W
1U
0S
1R
0Q
01
1/
0-
1,
0+
#78000
1!
1A
1`
0$!
#80000
0!
0(
12
13
1&
1#
1%
14
1"
06
0A
0H
1F
1E
1C
1B
1N
1L
1M
0J
0v
1b
1i
1a
1h
1k
1o
1q
0u
0`
1$!
1j
1p
0r
0t
1e
0f
1z
1{
0|
1}
0!!
1#!
1f
1t
0p
1g
1l
0j
1w
1x
1X
0Z
1\
0]
1^
1_
1W
0U
1S
0R
1Q
1P
11
0/
1-
0,
1+
1*
#88000
1!
1A
1`
0$!
#90000
0!
0A
0`
1$!
#98000
1!
1A
1`
0$!
#100000
0!
1(
02
04
0"
0A
1H
0B
0N
0M
0b
0a
0h
1u
0`
1$!
1j
0n
1p
1r
0t
0x
0w
0z
1"!
1x
0e
0j
0g
1Y
0_
1V
0P
10
0*
#108000
1!
1A
1`
0$!
#110000
0!
0A
0`
1$!
#118000
1!
1A
1`
0$!
#120000
0!
0(
1"
03
0&
16
1'
1$
0A
0H
1G
0F
1D
1B
0L
1J
1v
0i
1h
1m
0q
1s
0u
0`
1$!
0{
1|
0}
1!!
0"!
0x
1t
0p
1n
0l
0Y
1Z
0\
1]
0^
0V
1U
0S
1R
0Q
00
1/
0-
1,
0+
#128000
1!
1A
1`
0$!
#130000
0!
0A
0`
1$!
0|
1}
0~
1"!
0#!
1x
0r
1p
0n
0X
1Y
0[
1\
0]
0W
1V
0T
1S
0R
01
10
0.
1-
0,
#138000
1!
1A
1`
0$!
#140000
0!
0"
1&
0'
12
14
0#
0)
17
0A
0I
0G
1F
0C
0B
1N
1M
1K
1c
1b
1a
0h
0k
1q
0s
0y
0`
1$!
1l
1r
0t
0x
0f
1e
0}
1~
0!!
1#!
1f
1t
1n
0l
0p
1X
0Z
1[
0\
1W
0U
1T
0S
11
0/
1.
0-
#148000
1!
1A
1`
0$!
#150000
0!
0A
0`
1$!
1}
0~
1!!
0#!
0f
0t
0n
1l
1p
0X
1Z
0[
1\
0W
1U
0T
1S
01
1/
0.
1-
#158000
1!
1A
1`
0$!
#160000
0!
0&
04
1(
0$
0%
0A
1H
0F
0E
0D
0M
0b
0m
0o
0q
1u
0`
1$!
0e
1f
1|
0}
1~
0"!
0r
0l
1j
1n
0Y
1[
0\
1]
0V
1T
0S
1R
00
1.
0-
1,
#168000
1!
1A
1`
0$!
#170000
0!
0A
0`
1$!
1{
0|
1}
0!!
0p
0j
1g
1l
0Z
1\
0]
1^
0U
1S
0R
1Q
0/
1-
0,
1+
#178000
1!
1A
1`
0$!
#180000
0!
14
1$
1"
1'
1#
07
06
05
0A
1M
1G
1D
1C
1B
0K
0J
0O
0d
0v
0c
1h
1k
1m
1s
1b
0`
1$!
0f
1e
1z
0{
1|
0~
0n
0g
1j
1w
1x
0[
1]
0^
1_
0T
1R
0Q
1P
0.
1,
0+
1*
#188000
1!
1A
1`
0$!
#190000
0!
0A
0`
1$!
0z
1{
0}
1#!
1f
1t
1g
0l
0w
0x
1X
0\
1^
0_
1W
0S
1Q
0P
11
0-
1+
0*
#198000
1!
1A
1`
0$!
#200000
0!
04
0$
0"
0#
16
1&
0(
1%
02
1)
13
0A
0M
1I
0H
1F
1E
0D
0C
0B
1J
0N
1L
1i
0a
1v
0h
0k
0m
1o
1q
0u
1y
0b
0`
1$!
0e
1w
0j
1l
1n
0t
0{
0|
1}
1~
1!!
0g
1t
1r
1p
0n
0l
1Z
1[
1\
0]
0^
1U
1T
1S
0R
0Q
1/
1.
1-
0,
0+
#208000
1!
1A
1`
0$!
#210000
0!
0A
0`
1$!
#218000
1!
1A
1`
0$!
#220000
0!
14
1$
1"
1#
06
1(
0%
03
0A
1M
1H
0E
1D
1C
1B
0J
0L
0i
0v
1h
1k
1m
0o
1u
1b
0`
1$!
1e
0w
0}
1"!
0#!
1g
0f
1x
0p
0g
0X
1Y
0\
0W
1V
0S
01
10
0-
#228000
1!
1A
1`
0$!
#230000
0!
0A
0`
1$!
0~
1#!
1f
0r
1g
1X
0[
1W
0T
11
0.
#238000
1!
1A
1`
0$!
#240000
0!
0$
16
0(
0&
12
0)
17
15
0A
0I
0H
0F
0D
1J
1N
1K
1O
1d
1c
1a
1v
0m
0q
0u
0y
0`
1$!
0g
1p
1r
0x
1z
0!!
0p
1w
1x
0Z
1_
0U
1P
0/
1*
#248000
1!
1A
1`
0$!
#250000
0!
0A
0`
1$!
0z
1!!
1p
0w
0x
1Z
0_
1U
0P
1/
0*
#258000
1!
1A
1`
0$!
#260000
0!
1$
06
1(
1)
07
04
0"
1%
13
0'
0A
1I
1H
0G
1E
1D
0B
0J
0K
0M
1L
1i
0b
0c
0v
0h
1m
1o
0s
1u
1y
0`
1$!
0e
1{
1|
1}
0!!
0p
1j
1g
1l
0Z
1\
1]
1^
0U
1S
1R
1Q
0/
1-
1,
1+
#268000
1!
1A
1`
0$!
#270000
0!
0A
0`
1$!
#278000
1!
1A
1`
0$!
#280000
0!
16
0(
17
0%
03
1'
02
0A
1J
0H
1G
0E
1K
0L
0N
0a
0i
1c
0o
1s
0u
1v
0`
1$!
0g
0j
1n
1p
0r
0t
1x
1z
0}
1!!
0#!
1t
0p
1e
1j
1g
0X
1Z
0\
1_
0W
1U
0S
1P
01
1/
0-
1*
#288000
1!
1A
1`
0$!
#290000
0!
0A
0`
1$!
1}
0!!
1#!
0t
1p
1X
0Z
1\
1W
0U
1S
11
0/
1-
#298000
1!
1A
1`
0$!
#300000
0!
07
0'
0$
0)
14
05
0A
0K
0I
0G
0D
1M
0O
0d
1b
0m
0s
0y
0c
0`
1$!
1w
1~
0"!
0x
1r
0Y
1[
0V
1T
00
1.
#308000
1!
1A
1`
0$!
#310000
0!
0A
0`
1$!
1!!
0#!
0f
1t
0g
0X
1Z
0W
1U
01
1/
#318000
1!
1A
1`
0$!
#320000
0!
17
1)
04
06
1(
13
12
1"
1&
0#
0A
1K
1I
1H
1F
0C
1B
0M
0J
1L
1N
1a
1i
0v
0b
1h
0k
1q
1u
1y
1c
0`
1$!
1f
0w
1g
0r
0t
1x
0{
0|
0}
0!!
1"!
1#!
0x
1r
1t
0p
0j
0g
0l
1X
1Y
0Z
0\
0]
0^
1W
1V
0U
0S
0R
0Q
11
10
0/
0-
0,
0+
#328000
1!
1A
1`
0$!
#330000
0!
0A
0`
1$!
#338000
1!
1A
1`
0$!
#340000
0!
07
14
16
0"
0&
1#
1'
1$
1%
0A
0K
1M
1J
1G
0F
1E
1D
1C
0B
0h
1k
1m
1o
0q
1s
1v
1b
0c
0`
1$!
1w
0z
1{
1|
1}
0~
1!!
1x
1p
0n
1g
1l
1j
0w
0x
1Z
0[
1\
1]
1^
0_
1U
0T
1S
1R
1Q
0P
1/
0.
1-
1,
1+
0*
#348000
1!
1A
1`
0$!
#350000
0!
0A
0`
1$!
#358000
1!
1A
1`
0$!
#360000
0!
17
06
1&
0#
0%
03
02
15
0A
1K
0J
1F
0E
0C
0L
0N
1O
1d
0a
0i
0k
0o
1q
0v
1c
0`
1$!
0j
1n
0r
1x
1z
0}
1~
0#!
0f
1r
0p
1j
1w
0g
0X
1[
0\
1_
0W
1T
0S
1P
01
1.
0-
1*
#368000
1!
1A
1`
0$!
#370000
0!
0A
0`
1$!
0z
1}
0~
1#!
1f
0r
1p
0j
0w
1g
1X
0[
1\
0_
1W
0T
1S
0P
11
0.
1-
0*
#378000
1!
1A
1`
0$!
#380000
0!
16
0&
1#
12
05
04
0'
0$
0(
0A
1J
0H
0G
0F
0D
1C
1N
0O
0M
0b
0d
1a
1k
0m
0q
0s
0u
1v
0`
1$!
1j
0n
1r
0x
1w
1z
0{
1~
0!!
1x
0p
1n
0g
0Z
1[
0^
1_
0U
1T
0Q
1P
0/
1.
0+
1*
#388000
1!
1A
1`
0$!
#390000
0!
0A
0`
1$!
0z
1{
0~
1!!
1p
0n
1g
1Z
0[
1^
0_
1U
0T
1Q
0P
1/
0.
1+
0*
#398000
1!
1A
1`
0$!
#400000
0!
06
0#
15
1'
1(
1"
0)
0A
0J
0I
1H
1G
0C
1B
1O
1d
1h
0k
1s
1u
0y
0v
0`
1$!
0e
0w
1z
0}
1~
0x
1n
0l
1e
1[
0\
1_
1T
0S
1P
1.
0-
1*
#408000
1!
1A
1`
0$!
#410000
0!
0A
0`
1$!
0|
1}
0#!
0t
1l
0j
0X
1\
0]
0W
1S
0R
01
1-
0,
#418000
1!
1A
1`
0$!
#420000
0!
16
05
0'
0"
1)
02
1%
13
0A
1J
0O
1I
0G
1E
0B
0N
1L
1i
0a
0h
1o
0s
1y
0d
1v
0`
1$!
1w
1j
0n
1t
1x
0z
0{
0~
0!!
1#!
0t
0r
0l
0j
1X
0Z
0[
0^
0_
1W
0U
0T
0Q
0P
11
0/
0.
0+
0*
#428000
1!
1A
1`
0$!
#430000
0!
0A
0`
1$!
#438000
1!
1A
1`
0$!
#440000
0!
1'
1"
12
0%
03
0(
1&
0A
0H
1G
1F
0E
1B
1N
0L
0i
1a
1h
0o
1q
1s
0u
0`
1$!
0g
1l
0p
1r
1t
1z
0}
1~
0"!
1n
0r
0l
0Y
1[
0\
1_
0V
1T
0S
1P
00
1.
0-
1*
#448000
1!
1A
1`
0$!
#450000
0!
0A
0`
1$!
0z
1}
0~
1"!
0n
1r
1l
1Y
0[
1\
0_
1V
0T
1S
0P
10
0.
1-
0*
#458000
1!
1A
1`
0$!
#460000
0!
0'
0"
1(
0&
15
0)
14
1$
0A
0I
1H
0G
0F
1D
0B
1O
1M
1b
1d
0h
1m
0q
0s
1u
0y
0`
1$!
0w
1|
0}
1!!
0x
0l
1p
1j
1Z
0\
1]
1U
0S
1R
1/
0-
1,
#468000
1!
1A
1`
0$!
#470000
0!
0A
0`
1$!
1{
0|
1~
0#!
0f
0t
0j
1n
1g
0X
1[
0]
1^
0W
1T
0R
1Q
01
1.
0,
1+
#478000
1!
1A
1`
0$!
#480000
0!
1"
0(
05
0$
02
13
1#
07
0A
0H
0D
1C
1B
0O
0N
1L
0K
0c
1i
0a
0d
1h
1k
0m
0u
0`
1$!
0g
1l
0n
0p
1t
1x
1z
0~
0!!
0"!
0x
0t
0r
1j
1w
0Y
0Z
0[
1_
0V
0U
0T
1P
00
0/
0.
1*
#488000
1!
1A
1`
0$!
#490000
0!
0A
0`
1$!
#498000
1!
1A
1`
0$!
#500000
0!
15
1$
0#
1&
1)
04
1%
06
0A
1O
1I
1F
1E
1D
0C
0M
0J
0v
0b
0k
1m
1o
1q
1y
1d
0`
1$!
1f
0w
0{
1|
1}
1~
1#!
1g
1r
1p
1n
0l
1X
1[
1\
1]
0^
1W
1T
1S
1R
0Q
11
1.
1-
1,
0+
#508000
1!
1A
1`
0$!
#510000
0!
0A
0`
1$!
#518000
1!
1A
1`
0$!
#520000
0!
0&
16
0"
17
0A
0F
0B
1J
1K
1c
1v
0h
0q
0`
1$!
0z
0~
0r
0e
0j
0g
0[
0_
0T
0P
0.
0*
#528000
1!
1A
1`
0$!
#530000
0!
0A
0`
1$!
#538000
1!
1A
1`
0$!
#540000
0!
0)
1(
12
1'
0A
0I
1H
1G
1N
1a
1s
1u
0y
0`
1$!
1j
1l
0n
0p
1t
1!!
1"!
0#!
1r
1p
0t
0X
1Y
1Z
0W
1V
1U
01
10
1/
#548000
1!
1A
1`
0$!
#550000
0!
0A
0`
1$!
#558000
1!
1A
1`
0$!
#560000
0!
1)
1&
06
1"
0$
0%
0A
1I
1F
0E
0D
1B
0J
0v
1h
0m
0o
1q
1y
0`
1$!
1z
0|
0}
1~
1#!
1t
0l
1n
1e
0j
1X
1[
0\
0]
1_
1W
1T
0S
0R
1P
11
1.
0-
0,
1*
#568000
1!
1A
1`
0$!
#570000
0!
0A
0`
1$!
#578000
1!
1A
1`
0$!
#580000
0!
0)
0"
0(
07
1#
14
0A
0I
0H
1C
0B
0K
1M
1b
0c
0h
1k
0u
0y
0`
1$!
1w
0z
1{
0"!
0#!
1x
0f
0t
0r
1g
0w
0x
0X
0Y
1^
0_
0W
0V
1Q
0P
01
00
1+
0*
#588000
1!
1A
1`
0$!
#590000
0!
0A
0`
1$!
#598000
1!
1A
1`
0$!
#600000
0!
1(
0#
04
16
1$
1%
02
0'
05
03
0A
1H
0G
1E
1D
0C
0M
1J
0N
0O
0L
0i
0d
0a
1v
0b
0k
1m
1o
0s
1u
0`
1$!
1f
0g
1l
0n
0p
1r
1t
0e
1w
1z
0{
1}
0!!
0t
1p
0l
1j
0Z
1\
0^
1_
0U
1S
0Q
1P
0/
1-
0+
1*
#608000
1!
1A
1`
0$!
#610000
0!
0A
0`
1$!
0z
1{
0}
1!!
1t
0p
1l
0j
1Z
0\
1^
0_
1U
0S
1Q
0P
1/
0-
1+
0*
#618000
1!
1A
1`
0$!
#620000
0!
0(
14
06
0$
0%
12
15
13
1"
17
0A
0H
0E
0D
1B
1M
0J
1N
1O
1L
1K
1c
1i
1d
1a
0v
1b
1h
0m
0o
0u
0`
1$!
0f
1g
0l
1n
1p
0r
0t
1x
0w
1e
1z
0{
0!!
0x
0p
0g
1w
1x
0Z
0^
1_
0U
0Q
1P
0/
0+
1*
#628000
1!
1A
1`
0$!
#630000
0!
0A
0`
1$!
#638000
1!
1A
1`
0$!
#640000
0!
1(
04
16
02
05
03
07
1#
0A
1H
1C
0M
1J
0N
0O
0L
0K
0c
0i
0d
0a
1v
0b
1k
1u
0`
1$!
1f
1j
0n
1r
0x
0e
0z
1}
0~
1#!
0r
1p
0j
1X
0[
1\
0_
1W
0T
1S
0P
11
0.
1-
0*
#648000
1!
1A
1`
0$!
#650000
0!
0A
0`
1$!
0}
1~
0#!
1r
0p
0X
1[
0\
0W
1T
0S
01
1.
0-
#658000
1!
1A
1`
0$!
#660000
0!
15
0"
0&
0A
1O
0F
0B
0h
0q
1d
0`
1$!
0w
0~
1!!
1t
0r
1Z
0[
1U
0T
1/
0.
#668000
1!
1A
1`
0$!
#670000
0!
0A
0`
1$!
0!!
1"!
1x
0t
1Y
0Z
1V
0U
10
0/
#678000
1!
1A
1`
0$!
#680000
0!
1&
0(
0#
1$
1'
0A
0H
1G
1F
1D
0C
0k
1m
1q
1s
0u
0`
1$!
0"!
1#!
0x
1X
0Y
1W
0V
11
00
#688000
1!
1A
1`
0$!
#690000
0!
0A
0`
1$!
0#!
0X
0W
01
#698000
1!
1A
1`
0$!
#700000
0!
1#
05
14
06
12
1)
0A
1I
1C
0O
1M
0J
1N
1a
0v
1b
0d
1k
1y
0`
1$!
1e
0f
#708000
1!
1A
1`
0$!
#710000
0!
0A
0`
1$!
#718000
1!
1A
1`
0$!
#720000
0!
0#
15
04
02
1(
0$
13
17
0A
1H
0D
0C
1O
0M
0N
1L
1K
1c
1i
0a
0b
1d
0k
0m
1u
0`
1$!
1f
0e
1~
1!!
1"!
1#!
1x
1t
1r
1X
1Y
1Z
1[
1W
1V
1U
1T
11
10
1/
1.
#728000
1!
1A
1`
0$!
#730000
0!
0A
0`
1$!
#738000
1!
1A
1`
0$!
#740000
0!
1#
05
14
12
1$
07
16
0'
1"
0A
0G
1D
1C
1B
0O
1M
1N
0K
1J
1v
0c
1a
1b
0d
1h
1k
1m
0s
0`
1$!
1n
1p
0x
1e
1z
1{
1|
0!!
0p
1g
1j
1w
1x
0Z
1]
1^
1_
0U
1R
1Q
1P
0/
1,
1+
1*
#748000
1!
1A
1`
0$!
#750000
0!
0A
0`
1$!
#758000
1!
1A
1`
0$!
#760000
0!
15
04
02
0$
1'
0(
03
0A
1O
0M
0N
0H
1G
0D
0L
0i
0m
1s
0u
0a
0b
1d
0`
1$!
0w
1l
0t
0|
1}
0~
1!!
1t
0r
1p
0n
1Z
0[
1\
0]
1U
0T
1S
0R
1/
0.
1-
0,
#768000
1!
1A
1`
0$!
#770000
0!
0A
0`
1$!
1|
0}
1~
0!!
0t
1r
0p
1n
0Z
1[
0\
1]
0U
1T
0S
1R
0/
1.
0-
1,
#778000
1!
1A
1`
0$!
#780000
0!
14
12
1$
0'
13
0)
0&
0A
1M
1N
0I
0G
0F
1D
1L
1i
1m
0q
0s
0y
1a
1b
0`
1$!
1w
0l
1t
0x
0~
0"!
0#!
1x
0f
0t
0n
0r
0X
0Y
0[
0W
0V
0T
01
00
0.
#788000
1!
1A
1`
0$!
#790000
0!
0A
0`
1$!
#798000
1!
1A
1`
0$!
#800000
0!
04
1'
03
05
17
1%
0A
0M
1G
1E
0L
0O
1K
1c
0d
0i
1o
1s
0b
0`
1$!
1f
0|
1#!
1t
0j
1X
0]
1W
0R
11
0,
#808000
1!
1A
1`
0$!
#810000
0!
0A
0`
1$!
0{
1"!
1r
0g
1Y
0^
1V
0Q
10
0+
#818000
1!
1A
1`
0$!
#820000
0!
0'
13
07
02
1)
1&
1(
0#
06
0"
0A
1I
1H
0G
1F
0C
0B
1L
0K
0N
0J
0v
0a
0c
1i
0h
0k
1q
0s
1u
1y
0`
1$!
0e
1g
1j
0r
0t
0w
0z
1|
1}
1~
0g
1r
1p
1n
0j
1[
1\
1]
0_
1T
1S
1R
0P
1.
1-
1,
0*
#828000
1!
1A
1`
0$!
#830000
0!
0A
0`
1$!
#838000
1!
1A
1`
0$!
#840000
0!
1'
17
12
0(
0$
0A
0H
1G
0D
1K
1N
1a
1c
0m
1s
0u
0`
1$!
1e
1j
1l
0p
1t
0x
0|
1!!
0"!
0r
1p
0j
0Y
1Z
0]
0V
1U
0R
00
1/
0,
#848000
1!
1A
1`
0$!
#850000
0!
0A
0`
1$!
#858000
1!
1A
1`
0$!
#860000
0!
1$
0)
1#
14
15
0A
0I
1D
1C
1M
1O
1d
1b
1k
1m
0y
0`
1$!
1{
1|
0#!
0f
0t
1j
1g
0X
1]
1^
0W
1R
1Q
01
1,
1+
#868000
1!
1A
1`
0$!
#870000
0!
0A
0`
1$!
#878000
1!
1A
1`
0$!
#880000
0!
0$
1)
0#
04
05
0'
1(
0&
16
0A
1I
1H
0G
0F
0D
0C
0M
0O
1J
1v
0d
0b
0k
0m
0q
0s
1u
1y
0`
1$!
1f
1w
0{
0|
0~
0!!
1"!
1#!
1x
0p
1t
1r
0j
0n
0g
1X
1Y
0Z
0[
0]
0^
1W
1V
0U
0T
0R
0Q
11
10
0/
0.
0,
0+
#888000
1!
1A
1`
0$!
#890000
0!
0A
0`
1$!
#898000
1!
1A
1`
0$!
#900000
0!
1$
14
0(
07
0A
0H
1D
1M
0K
0c
1b
1m
0u
0`
1$!
0w
1|
0"!
0x
0r
1j
0Y
1]
0V
1R
00
1,
#908000
1!
1A
1`
0$!
#910000
0!
0A
0`
1$!
#918000
1!
1A
1`
0$!
#920000
0!
0$
17
1#
15
1'
1&
06
03
0A
1G
1F
0D
1C
1K
1O
0J
0L
0i
0v
1d
1c
1k
0m
1q
1s
0`
1$!
1{
0}
1"!
0#!
0f
0t
1r
1g
0l
0X
1Y
0\
1^
0W
1V
0S
1Q
01
10
0-
1+
#928000
1!
1A
1`
0$!
#930000
0!
0A
0`
1$!
1z
0|
1!!
0"!
0r
1p
0j
1w
1x
0Y
1Z
0]
1_
0V
1U
0R
1P
00
1/
0,
1*
#938000
1!
1A
1`
0$!
#940000
0!
1$
07
0'
0&
16
04
1(
0%
0A
1H
0G
0F
0E
1D
0K
1J
0M
0b
1v
0c
1m
0o
0q
0s
1u
0`
1$!
1f
0w
0{
1~
0!!
1#!
0x
0p
1t
1n
0g
1X
0Z
1[
0^
1W
0U
1T
0Q
11
0/
1.
0+
#948000
1!
1A
1`
0$!
#950000
0!
0A
0`
1$!
0z
1}
0~
1"!
0#!
0t
0n
1r
1l
0e
0X
1Y
0[
1\
0_
0W
1V
0T
1S
0P
01
10
0.
1-
0*
#958000
1!
1A
1`
0$!
#960000
0!
0$
06
14
0#
02
1"
0A
0D
0C
1B
0J
1M
0N
0a
1b
0v
1h
0k
0m
0`
1$!
1e
0f
0l
1p
0r
1x
1|
0}
1!!
0"!
0x
1t
0p
1n
0Y
1Z
0\
1]
0V
1U
0S
1R
00
1/
0-
1,
#968000
1!
1A
1`
0$!
#970000
0!
0A
0`
1$!
0|
1}
0!!
1"!
1x
0t
1p
0n
1Y
0Z
1\
0]
1V
0U
1S
0R
10
0/
1-
0,
#978000
1!
1A
1`
0$!
#980000
0!
1$
16
12
17
1'
1&
1%
13
0A
1G
1F
1E
1D
1J
1N
1K
1L
1i
1c
1a
1v
1m
1o
1q
1s
0`
1$!
1l
0p
1r
0x
1z
1|
1~
1!!
1#!
1f
1p
1t
1n
1j
1w
1x
1X
1Z
1[
1]
1_
1W
1U
1T
1R
1P
11
1/
1.
1,
1*
#988000
1!
1A
1`
0$!
#990000
0!
0A
0`
1$!
#998000
1!
1A
1`
0$!
