Guiao 2/Aula 1 P.TP/Parte 2/simulation/qsim/Mux2_1Demo.msim.vcd
$comment
	File created using the following command:
		vcd file Mux2_1Demo.msim.vcd -direction
$end
$date
	Thu Mar 24 11:04:38 2022
$end
$version
	ModelSim Version 2020.1
$end
$timescale
	1ps
$end

$scope module mux2_1_vhd_vec_tst $end
$var wire 1 ! dataIn [1] $end
$var wire 1 " dataIn [0] $end
$var wire 1 # dataOut $end
$var wire 1 $ sel $end

$scope module i1 $end
$var wire 1 % gnd $end
$var wire 1 & vcc $end
$var wire 1 ' unknown $end
$var wire 1 ( devoe $end
$var wire 1 ) devclrn $end
$var wire 1 * devpor $end
$var wire 1 + ww_devoe $end
$var wire 1 , ww_devclrn $end
$var wire 1 - ww_devpor $end
$var wire 1 . ww_dataIn [1] $end
$var wire 1 / ww_dataIn [0] $end
$var wire 1 0 ww_sel $end
$var wire 1 1 ww_dataOut $end
$var wire 1 2 \dataOut~output_o\ $end
$var wire 1 3 \dataIn[1]~input_o\ $end
$var wire 1 4 \dataIn[0]~input_o\ $end
$var wire 1 5 \sel~input_o\ $end
$var wire 1 6 \dataOut~0_combout\ $end
$upscope $end
$upscope $end
$enddefinitions $end
#0
$dumpvars
0#
0$
0%
1&
x'
1(
1)
1*
1+
1,
1-
00
01
02
03
04
05
06
0!
0"
0.
0/
$end
#10000
1"
1/
14
16
12
11
1#
#20000
0"
1!
0/
1.
13
04
06
02
01
0#
#30000
1"
1/
14
16
12
11
1#
#40000
0"
0!
1$
0/
0.
10
15
03
04
06
02
01
0#
#50000
1"
1/
14
#60000
0"
1!
0/
1.
13
04
16
12
11
1#
#70000
1"
1/
14
#80000
0"
0!
0$
0/
0.
00
05
03
04
06
02
01
0#
#90000
1"
1/
14
16
12
11
1#
#100000
0"
1!
0/
1.
13
04
06
02
01
0#
#110000
1"
1/
14
16
12
11
1#
#120000
0"
0!
1$
0/
0.
10
15
03
04
06
02
01
0#
#130000
1"
1/
14
#140000
0"
1!
0/
1.
13
04
16
12
11
1#
#150000
1"
1/
14
#160000
0"
0!
0$
0/
0.
00
05
03
04
06
02
01
0#
#170000
1"
1/
14
16
12
11
1#
#180000
0"
1!
0/
1.
13
04
06
02
01
0#
#190000
1"
1/
14
16
12
11
1#
#200000
0"
0!
1$
0/
0.
10
15
03
04
06
02
01
0#
#210000
1"
1/
14
#220000
0"
1!
0/
1.
13
04
16
12
11
1#
#230000
1"
1/
14
#240000
0"
0!
0$
0/
0.
00
05
03
04
06
02
01
0#
#250000
1"
1/
14
16
12
11
1#
#260000
0"
1!
0/
1.
13
04
06
02
01
0#
#270000
1"
1/
14
16
12
11
1#
#280000
0"
0!
1$
0/
0.
10
15
03
04
06
02
01
0#
#290000
1"
1/
14
#300000
0"
1!
0/
1.
13
04
16
12
11
1#
#310000
1"
1/
14
#320000
0"
0!
0$
0/
0.
00
05
03
04
06
02
01
0#
#330000
1"
1/
14
16
12
11
1#
#340000
0"
1!
0/
1.
13
04
06
02
01
0#
#350000
1"
1/
14
16
12
11
1#
#360000
0"
0!
1$
0/
0.
10
15
03
04
06
02
01
0#
#370000
1"
1/
14
#380000
0"
1!
0/
1.
13
04
16
12
11
1#
#390000
1"
1/
14
#400000
0"
0!
0$
0/
0.
00
05
03
04
06
02
01
0#
#410000
1"
1/
14
16
12
11
1#
#420000
0"
1!
0/
1.
13
04
06
02
01
0#
#430000
1"
1/
14
16
12
11
1#
#440000
0"
0!
1$
0/
0.
10
15
03
04
06
02
01
0#
#450000
1"
1/
14
#460000
0"
1!
0/
1.
13
04
16
12
11
1#
#470000
1"
1/
14
#480000
0"
0!
0$
0/
0.
00
05
03
04
06
02
01
0#
#490000
1"
1/
14
16
12
11
1#
#500000
0"
1!
0/
1.
13
04
06
02
01
0#
#510000
1"
1/
14
16
12
11
1#
#520000
0"
0!
1$
0/
0.
10
15
03
04
06
02
01
0#
#530000
1"
1/
14
#540000
0"
1!
0/
1.
13
04
16
12
11
1#
#550000
1"
1/
14
#560000
0"
0!
0$
0/
0.
00
05
03
04
06
02
01
0#
#570000
1"
1/
14
16
12
11
1#
#580000
0"
1!
0/
1.
13
04
06
02
01
0#
#590000
1"
1/
14
16
12
11
1#
#600000
0"
0!
1$
0/
0.
10
15
03
04
06
02
01
0#
#610000
1"
1/
14
#620000
0"
1!
0/
1.
13
04
16
12
11
1#
#630000
1"
1/
14
#640000
0"
0!
0$
0/
0.
00
05
03
04
06
02
01
0#
#650000
1"
1/
14
16
12
11
1#
#660000
0"
1!
0/
1.
13
04
06
02
01
0#
#670000
1"
1/
14
16
12
11
1#
#680000
0"
0!
1$
0/
0.
10
15
03
04
06
02
01
0#
#690000
1"
1/
14
#700000
0"
1!
0/
1.
13
04
16
12
11
1#
#710000
1"
1/
14
#720000
0"
0!
0$
0/
0.
00
05
03
04
06
02
01
0#
#730000
1"
1/
14
16
12
11
1#
#740000
0"
1!
0/
1.
13
04
06
02
01
0#
#750000
1"
1/
14
16
12
11
1#
#760000
0"
0!
1$
0/
0.
10
15
03
04
06
02
01
0#
#770000
1"
1/
14
#780000
0"
1!
0/
1.
13
04
16
12
11
1#
#790000
1"
1/
14
#800000
0"
0!
0$
0/
0.
00
05
03
04
06
02
01
0#
#810000
1"
1/
14
16
12
11
1#
#820000
0"
1!
0/
1.
13
04
06
02
01
0#
#830000
1"
1/
14
16
12
11
1#
#840000
0"
0!
1$
0/
0.
10
15
03
04
06
02
01
0#
#850000
1"
1/
14
#860000
0"
1!
0/
1.
13
04
16
12
11
1#
#870000
1"
1/
14
#880000
0"
0!
0$
0/
0.
00
05
03
04
06
02
01
0#
#890000
1"
1/
14
16
12
11
1#
#900000
0"
1!
0/
1.
13
04
06
02
01
0#
#910000
1"
1/
14
16
12
11
1#
#920000
0"
0!
1$
0/
0.
10
15
03
04
06
02
01
0#
#930000
1"
1/
14
#940000
0"
1!
0/
1.
13
04
16
12
11
1#
#950000
1"
1/
14
#960000
0"
0!
0$
0/
0.
00
05
03
04
06
02
01
0#
#970000
1"
1/
14
16
12
11
1#
#980000
0"
1!
0/
1.
13
04
06
02
01
0#
#990000
1"
1/
14
16
12
11
1#
