Guiao4/Parte3/simulation/qsim/Counter_Demo.msim.vcd
$comment
	File created using the following command:
		vcd file Counter_Demo.msim.vcd -direction
$end
$date
	Mon Apr 11 20:02:44 2022
$end
$version
	ModelSim Version 2020.1
$end
$timescale
	1ps
$end

$scope module counterloadupdown4_vhd_vec_tst $end
$var wire 1 ! clk $end
$var wire 1 " count [3] $end
$var wire 1 # count [2] $end
$var wire 1 $ count [1] $end
$var wire 1 % count [0] $end
$var wire 1 & enable $end
$var wire 1 ' load $end
$var wire 1 ( reset $end
$var wire 1 ) upDown $end

$scope module i1 $end
$var wire 1 * gnd $end
$var wire 1 + vcc $end
$var wire 1 , unknown $end
$var wire 1 - devoe $end
$var wire 1 . devclrn $end
$var wire 1 / devpor $end
$var wire 1 0 ww_devoe $end
$var wire 1 1 ww_devclrn $end
$var wire 1 2 ww_devpor $end
$var wire 1 3 ww_clk $end
$var wire 1 4 ww_upDown $end
$var wire 1 5 ww_reset $end
$var wire 1 6 ww_load $end
$var wire 1 7 ww_enable $end
$var wire 1 8 ww_count [3] $end
$var wire 1 9 ww_count [2] $end
$var wire 1 : ww_count [1] $end
$var wire 1 ; ww_count [0] $end
$var wire 1 < \count[0]~output_o\ $end
$var wire 1 = \count[1]~output_o\ $end
$var wire 1 > \count[2]~output_o\ $end
$var wire 1 ? \count[3]~output_o\ $end
$var wire 1 @ \clk~input_o\ $end
$var wire 1 A \reset~input_o\ $end
$var wire 1 B \enable~input_o\ $end
$var wire 1 C \s_count[0]~8_combout\ $end
$var wire 1 D \s_count[0]~en_q\ $end
$var wire 1 E \load~input_o\ $end
$var wire 1 F \s_count[0]~7_combout\ $end
$var wire 1 G \upDown~input_o\ $end
$var wire 1 H \s_count[1]~en_q\ $end
$var wire 1 I \s_count[1]~9_combout\ $end
$var wire 1 J \s_count[0]~10_combout\ $end
$var wire 1 K \s_count[1]~12_cout\ $end
$var wire 1 L \s_count[1]~13_combout\ $end
$var wire 1 M \reset~_wirecell_combout\ $end
$var wire 1 N \s_count[0]~15_combout\ $end
$var wire 1 O \s_count[2]~en_q\ $end
$var wire 1 P \s_count[2]~16_combout\ $end
$var wire 1 Q \s_count[1]~14\ $end
$var wire 1 R \s_count[2]~17_combout\ $end
$var wire 1 S \s_count[3]~en_q\ $end
$var wire 1 T \s_count[3]~19_combout\ $end
$var wire 1 U \s_count[2]~18\ $end
$var wire 1 V \s_count[3]~20_combout\ $end
$var wire 1 W s_count [3] $end
$var wire 1 X s_count [2] $end
$var wire 1 Y s_count [1] $end
$var wire 1 Z s_count [0] $end
$upscope $end
$upscope $end
$enddefinitions $end
#0
$dumpvars
0!
1&
0'
0(
1)
0*
1+
x,
1-
1.
1/
10
11
12
03
14
05
06
17
z<
z=
z>
z?
0@
0A
1B
1C
0D
0E
0F
1G
0H
1I
1J
1K
0L
1M
0N
0O
1P
0Q
0R
0S
1T
1U
0V
z8
z9
z:
z;
0W
0X
0Y
0Z
z"
z#
z$
z%
$end
#10000
1!
13
1@
1D
1H
1O
1S
0T
0P
0I
1F
0J
0K
1L
1Q
1R
0U
1V
0?
0>
0=
0<
0V
0R
0L
08
09
0:
0;
0%
0$
0#
0"
#20000
0!
1'
1(
0)
03
16
15
04
0G
1A
1E
0@
0F
0M
1N
1L
1R
1V
#30000
1!
13
1@
#40000
0!
0&
03
07
0B
0@
#50000
1!
13
1@
#60000
0!
1&
03
17
1B
0@
#70000
1!
13
1@
#80000
0!
0&
0'
1)
03
07
06
14
1G
0E
0B
0@
0L
0R
0V
#90000
1!
13
1@
#100000
0!
1'
0(
03
16
05
0A
1E
0@
0C
1F
1M
#110000
1!
13
1@
0D
1Z
0H
1Y
0O
1X
0S
1W
1T
1P
1I
1J
1K
1L
1R
1V
z?
z>
z=
z<
0L
0Q
z8
z9
z:
z;
z%
z$
z#
z"
0R
1U
0V
#120000
0!
0'
1&
0)
03
06
17
04
0G
1B
0E
0@
0F
0N
1C
1L
1R
1V
#130000
1!
13
1@
1D
0Z
1H
1O
1S
1F
0J
0K
1?
1>
1=
0<
0L
18
19
1:
0;
0%
1$
1#
1"
#140000
0!
0&
03
07
0B
0@
0C
#150000
1!
13
1@
0D
1Z
0H
0Y
0O
0S
0F
1J
1K
z?
z>
z=
z<
1L
z8
z9
z:
z;
z%
z$
z#
z"
#160000
0!
1&
1'
03
17
16
1E
1B
0@
1C
1F
1N
#170000
1!
13
1@
1D
1H
1Y
1O
1S
1?
1>
1=
1<
18
19
1:
1;
1%
1$
1#
1"
#180000
0!
0'
03
06
0E
0@
0F
0N
#190000
1!
13
1@
0Z
1F
0J
0K
0<
0L
0;
0%
#200000
0!
1(
03
15
1A
0@
0F
0M
1N
#210000
1!
13
1@
0Y
0X
0W
0T
0P
0I
1L
1Q
0R
0V
0?
0>
0=
1R
0U
08
09
0:
0$
0#
0"
1V
#220000
0!
0(
1'
0&
1)
03
05
16
07
14
1G
0B
1E
0A
0@
1M
1F
0C
0L
0R
0V
#230000
1!
13
1@
0D
1Z
0H
1Y
0O
1X
0S
1W
1T
1P
1I
1J
1K
1L
1R
1V
z?
z>
z=
z<
0L
0Q
z8
z9
z:
z;
z%
z$
z#
z"
0R
1U
0V
#240000
0!
1(
0)
03
15
04
0G
1A
0@
1C
0F
0M
1L
1R
1V
#250000
1!
13
1@
1D
0Z
1H
0Y
1O
0X
1S
0W
0T
0P
0I
0J
0K
0L
0R
0V
0?
0>
0=
0<
1L
1Q
08
09
0:
0;
0%
0$
0#
0"
1R
0U
1V
#260000
0!
0(
1)
1&
03
05
14
17
1B
1G
0A
0@
1F
1M
0L
0R
0V
#270000
1!
13
1@
1Z
1Y
1X
1W
1T
1P
1I
1J
1K
1L
1R
1V
1?
1>
1=
1<
0L
0Q
18
19
1:
1;
1%
1$
1#
1"
0R
1U
0V
#280000
0!
0&
0'
03
07
06
0E
0B
0@
0C
0F
0N
#290000
1!
13
1@
0D
0Z
0H
0Y
0O
0X
0S
0W
z?
z>
z=
z<
z8
z9
z:
z;
z%
z$
z#
z"
#300000
0!
1&
1'
1(
03
17
16
15
1A
1E
1B
0@
1C
0M
1N
#310000
1!
13
1@
1D
1H
1O
1S
0T
0P
0I
0J
0K
1L
1Q
1R
0U
1V
0?
0>
0=
0<
0V
0R
0L
08
09
0:
0;
0%
0$
0#
0"
#320000
0!
0&
0'
0(
03
07
06
05
0A
0E
0B
0@
0C
1F
1M
0N
#330000
1!
13
1@
0D
1Z
0H
0O
0S
1T
1P
1I
0F
1J
1K
1L
1R
1V
z?
z>
z=
z<
0L
0Q
z8
z9
z:
z;
z%
z$
z#
z"
0R
1U
0V
#340000
0!
1'
03
16
1E
0@
1F
1N
#350000
1!
13
1@
1Y
1X
1W
#360000
0!
03
0@
#370000
1!
13
1@
#380000
0!
1(
03
15
1A
0@
1C
0F
0M
#390000
1!
13
1@
1D
0Z
1H
0Y
1O
0X
1S
0W
0T
0P
0I
0J
0K
1L
1Q
1R
0U
1V
0?
0>
0=
0<
0V
0R
0L
08
09
0:
0;
0%
0$
0#
0"
#400000
0!
0(
0)
03
05
04
0G
0A
0@
0C
1F
1M
1L
1R
1V
#410000
1!
13
1@
0D
1Z
0H
1Y
0O
1X
0S
1W
1T
1P
1I
1J
1K
0L
0Q
0R
1U
0V
z?
z>
z=
z<
1V
1R
1L
z8
z9
z:
z;
z%
z$
z#
z"
#420000
0!
0'
1&
03
06
17
1B
0E
0@
0F
0N
1C
#430000
1!
13
1@
1D
0Z
1H
1O
1S
1F
0J
0K
1?
1>
1=
0<
0L
18
19
1:
0;
0%
1$
1#
1"
#440000
0!
1'
1(
03
16
15
1A
1E
0@
0F
0M
1N
#450000
1!
13
1@
0Y
0X
0W
0T
0P
0I
1L
1Q
0R
0V
0?
0>
0=
1R
0U
08
09
0:
0$
0#
0"
1V
#460000
0!
0(
03
05
0A
0@
1F
1M
#470000
1!
13
1@
1Z
1Y
1X
1W
1T
1P
1I
1J
1K
0L
0Q
0R
1U
0V
1?
1>
1=
1<
1V
1R
1L
18
19
1:
1;
1%
1$
1#
1"
#480000
0!
1(
0'
03
15
06
0E
1A
0@
0M
0F
#490000
1!
13
1@
0Z
0Y
0X
0W
0T
0P
0I
0J
0K
0L
0R
0V
0?
0>
0=
0<
1L
1Q
08
09
0:
0;
0%
0$
0#
0"
1R
0U
1V
#500000
0!
0&
1)
03
07
14
1G
0B
0@
0L
0R
0V
#510000
1!
13
1@
#520000
0!
0(
1'
03
05
16
1E
0A
0@
0C
1M
1F
#530000
1!
13
1@
0D
1Z
0H
1Y
0O
1X
0S
1W
1T
1P
1I
1J
1K
1L
1R
1V
z?
z>
z=
z<
0L
0Q
z8
z9
z:
z;
z%
z$
z#
z"
0R
1U
0V
#540000
0!
0'
1&
03
06
17
1B
0E
0@
0F
0N
1C
#550000
1!
13
1@
1D
0Z
1H
0Y
1O
0X
1S
0W
0T
0P
0I
1F
0J
0K
1L
1Q
1R
0U
1V
0?
0>
0=
0<
0V
0R
0L
08
09
0:
0;
0%
0$
0#
0"
#560000
0!
1'
0)
03
16
04
0G
1E
0@
1N
1L
1R
1V
#570000
1!
13
1@
1Z
1Y
1X
1W
1T
1P
1I
1J
1K
0L
0Q
0R
1U
0V
1?
1>
1=
1<
1V
1R
1L
18
19
1:
1;
1%
1$
1#
1"
#580000
0!
0'
0&
1(
03
06
07
15
1A
0B
0E
0@
0F
0M
#590000
1!
13
1@
0Z
0Y
0X
0W
0T
0P
0I
0J
0K
0L
0R
0V
0?
0>
0=
0<
1L
1Q
08
09
0:
0;
0%
0$
0#
0"
1R
0U
1V
#600000
0!
1'
1&
0(
03
16
17
05
0A
1B
1E
0@
1F
1M
#610000
1!
13
1@
1Z
1Y
1X
1W
1T
1P
1I
1J
1K
0L
0Q
0R
1U
0V
1?
1>
1=
1<
1V
1R
1L
18
19
1:
1;
1%
1$
1#
1"
#620000
0!
0&
1(
1)
03
07
15
14
1G
1A
0B
0@
0F
0M
0L
0R
0V
#630000
1!
13
1@
0Z
0Y
0X
0W
0T
0P
0I
0J
0K
1L
1Q
1R
0U
1V
0?
0>
0=
0<
0V
0R
0L
08
09
0:
0;
0%
0$
0#
0"
#640000
0!
1&
0)
03
17
04
0G
1B
0@
1L
1R
1V
#650000
1!
13
1@
#660000
0!
0(
03
05
0A
0@
1F
1M
#670000
1!
13
1@
1Z
1Y
1X
1W
1T
1P
1I
1J
1K
0L
0Q
0R
1U
0V
1?
1>
1=
1<
1V
1R
1L
18
19
1:
1;
1%
1$
1#
1"
#680000
0!
1(
0&
1)
03
15
07
14
1G
0B
1A
0@
0F
0M
0L
0R
0V
#690000
1!
13
1@
0Z
0Y
0X
0W
0T
0P
0I
0J
0K
1L
1Q
1R
0U
1V
0?
0>
0=
0<
0V
0R
0L
08
09
0:
0;
0%
0$
0#
0"
#700000
0!
0)
0'
03
04
06
0E
0G
0@
1L
1R
1V
#710000
1!
13
1@
#720000
0!
1'
0(
03
16
05
0A
1E
0@
0C
1F
1M
#730000
1!
13
1@
0D
1Z
0H
1Y
0O
1X
0S
1W
1T
1P
1I
1J
1K
0L
0Q
0R
1U
0V
z?
z>
z=
z<
1V
1R
1L
z8
z9
z:
z;
z%
z$
z#
z"
#740000
0!
0'
1(
1&
03
06
15
17
1B
1A
0E
0@
0F
0M
1C
#750000
1!
13
1@
1D
0Z
1H
0Y
1O
0X
1S
0W
0T
0P
0I
0J
0K
0L
0R
0V
0?
0>
0=
0<
1L
1Q
08
09
0:
0;
0%
0$
0#
0"
1R
0U
1V
#760000
0!
1'
1)
03
16
14
1G
1E
0@
0L
0R
0V
#770000
1!
13
1@
#780000
0!
03
0@
#790000
1!
13
1@
#800000
0!
0(
0&
03
05
07
0B
0A
0@
1F
1M
0C
#810000
1!
13
1@
0D
1Z
0H
1Y
0O
1X
0S
1W
1T
1P
1I
1J
1K
1L
1R
1V
z?
z>
z=
z<
0L
0Q
z8
z9
z:
z;
z%
z$
z#
z"
0R
1U
0V
#820000
0!
1(
1&
0)
03
15
17
04
0G
1B
1A
0@
0F
0M
1C
1L
1R
1V
#830000
1!
13
1@
1D
0Z
1H
0Y
1O
0X
1S
0W
0T
0P
0I
0J
0K
0L
0R
0V
0?
0>
0=
0<
1L
1Q
08
09
0:
0;
0%
0$
0#
0"
1R
0U
1V
#840000
0!
0(
1)
03
05
14
1G
0A
0@
1F
1M
0L
0R
0V
#850000
1!
13
1@
1Z
1Y
1X
1W
1T
1P
1I
1J
1K
1L
1R
1V
1?
1>
1=
1<
0L
0Q
18
19
1:
1;
1%
1$
1#
1"
0R
1U
0V
#860000
0!
1(
0&
0'
03
15
07
06
0E
0B
1A
0@
0M
0F
#870000
1!
13
1@
0Z
0Y
0X
0W
0T
0P
0I
0J
0K
1L
1Q
1R
0U
1V
0?
0>
0=
0<
0V
0R
0L
08
09
0:
0;
0%
0$
0#
0"
#880000
0!
1&
0)
03
17
04
0G
1B
0@
1L
1R
1V
#890000
1!
13
1@
#900000
0!
1'
03
16
1E
0@
#910000
1!
13
1@
#920000
0!
0'
0&
03
06
07
0B
0E
0@
#930000
1!
13
1@
#940000
0!
1'
1&
1)
0(
03
16
17
14
05
0A
1G
1B
1E
0@
0L
0R
0V
1F
1M
#950000
1!
13
1@
1Z
1Y
1X
1W
1T
1P
1I
1J
1K
1L
1R
1V
1?
1>
1=
1<
0L
0Q
18
19
1:
1;
1%
1$
1#
1"
0R
1U
0V
#960000
0!
0'
0&
0)
1(
03
06
07
04
15
1A
0G
0B
0E
0@
1L
1R
1V
0F
0M
#970000
1!
13
1@
0Z
0Y
0X
0W
0T
0P
0I
0J
0K
0L
0R
0V
0?
0>
0=
0<
1L
1Q
08
09
0:
0;
0%
0$
0#
0"
1R
0U
1V
#980000
0!
1'
1)
0(
03
16
14
05
0A
1G
1E
0@
0L
0R
0V
0C
1F
1M
#990000
1!
13
1@
0D
1Z
0H
1Y
0O
1X
0S
1W
1T
1P
1I
1J
1K
1L
1R
1V
z?
z>
z=
z<
0L
0Q
z8
z9
z:
z;
z%
z$
z#
z"
0R
1U
0V
