Guiao4/Parte2/simulation/qsim/Register_Demo.msim.vcd
$comment
	File created using the following command:
		vcd file Register_Demo.msim.vcd -direction
$end
$date
	Mon Apr 11 10:58:18 2022
$end
$version
	ModelSim Version 2020.1
$end
$timescale
	1ps
$end

$scope module register8_vhd_vec_tst $end
$var wire 1 ! clk $end
$var wire 1 " dataIn [7] $end
$var wire 1 # dataIn [6] $end
$var wire 1 $ dataIn [5] $end
$var wire 1 % dataIn [4] $end
$var wire 1 & dataIn [3] $end
$var wire 1 ' dataIn [2] $end
$var wire 1 ( dataIn [1] $end
$var wire 1 ) dataIn [0] $end
$var wire 1 * dataOut [7] $end
$var wire 1 + dataOut [6] $end
$var wire 1 , dataOut [5] $end
$var wire 1 - dataOut [4] $end
$var wire 1 . dataOut [3] $end
$var wire 1 / dataOut [2] $end
$var wire 1 0 dataOut [1] $end
$var wire 1 1 dataOut [0] $end
$var wire 1 2 wrEN $end

$scope module i1 $end
$var wire 1 3 gnd $end
$var wire 1 4 vcc $end
$var wire 1 5 unknown $end
$var wire 1 6 devoe $end
$var wire 1 7 devclrn $end
$var wire 1 8 devpor $end
$var wire 1 9 ww_devoe $end
$var wire 1 : ww_devclrn $end
$var wire 1 ; ww_devpor $end
$var wire 1 < ww_clk $end
$var wire 1 = ww_wrEN $end
$var wire 1 > ww_dataIn [7] $end
$var wire 1 ? ww_dataIn [6] $end
$var wire 1 @ ww_dataIn [5] $end
$var wire 1 A ww_dataIn [4] $end
$var wire 1 B ww_dataIn [3] $end
$var wire 1 C ww_dataIn [2] $end
$var wire 1 D ww_dataIn [1] $end
$var wire 1 E ww_dataIn [0] $end
$var wire 1 F ww_dataOut [7] $end
$var wire 1 G ww_dataOut [6] $end
$var wire 1 H ww_dataOut [5] $end
$var wire 1 I ww_dataOut [4] $end
$var wire 1 J ww_dataOut [3] $end
$var wire 1 K ww_dataOut [2] $end
$var wire 1 L ww_dataOut [1] $end
$var wire 1 M ww_dataOut [0] $end
$var wire 1 N \dataOut[0]~output_o\ $end
$var wire 1 O \dataOut[1]~output_o\ $end
$var wire 1 P \dataOut[2]~output_o\ $end
$var wire 1 Q \dataOut[3]~output_o\ $end
$var wire 1 R \dataOut[4]~output_o\ $end
$var wire 1 S \dataOut[5]~output_o\ $end
$var wire 1 T \dataOut[6]~output_o\ $end
$var wire 1 U \dataOut[7]~output_o\ $end
$var wire 1 V \clk~input_o\ $end
$var wire 1 W \dataIn[0]~input_o\ $end
$var wire 1 X \wrEN~input_o\ $end
$var wire 1 Y \dataOut[0]~reg0_q\ $end
$var wire 1 Z \dataIn[1]~input_o\ $end
$var wire 1 [ \dataOut[1]~reg0_q\ $end
$var wire 1 \ \dataIn[2]~input_o\ $end
$var wire 1 ] \dataOut[2]~reg0_q\ $end
$var wire 1 ^ \dataIn[3]~input_o\ $end
$var wire 1 _ \dataOut[3]~reg0_q\ $end
$var wire 1 ` \dataIn[4]~input_o\ $end
$var wire 1 a \dataOut[4]~reg0_q\ $end
$var wire 1 b \dataIn[5]~input_o\ $end
$var wire 1 c \dataOut[5]~reg0_q\ $end
$var wire 1 d \dataIn[6]~input_o\ $end
$var wire 1 e \dataOut[6]~reg0_q\ $end
$var wire 1 f \dataIn[7]~input_o\ $end
$var wire 1 g \dataOut[7]~reg0_q\ $end
$upscope $end
$upscope $end
$enddefinitions $end
#0
$dumpvars
0!
12
03
14
x5
16
17
18
19
1:
1;
0<
1=
0N
0O
0P
0Q
0R
0S
0T
0U
0V
1W
1X
0Y
0Z
0[
0\
0]
1^
0_
0`
0a
0b
0c
0d
0e
0f
0g
0"
0#
0$
0%
1&
0'
0(
1)
0*
0+
0,
0-
0.
0/
00
01
0>
0?
0@
0A
1B
0C
0D
1E
0F
0G
0H
0I
0J
0K
0L
0M
$end
#10000
1!
1<
1V
1Y
1_
1Q
1N
1J
1M
11
1.
#20000
0!
1"
1#
1$
0&
1(
02
0<
1D
0B
1@
1?
1>
0=
0X
1f
1d
1b
0^
1Z
0V
#30000
1!
1<
1V
#40000
0!
1&
12
1%
1'
0<
1C
1B
1A
1=
1X
1`
1^
1\
0V
#50000
1!
1<
1V
1[
1]
1a
1c
1e
1g
1U
1T
1S
1R
1P
1O
1F
1G
1H
1I
1K
1L
10
1/
1-
1,
1+
1*
#60000
0!
02
0'
0"
0<
0=
0C
0>
0f
0\
0X
0V
#70000
1!
1<
1V
#80000
0!
12
1'
1"
0&
0#
0<
1=
1C
0B
0?
1>
1f
0d
0^
1\
1X
0V
#90000
1!
1<
1V
0_
0e
0T
0Q
0G
0J
0.
0+
#100000
0!
1&
1#
0<
1B
1?
1d
1^
0V
#110000
1!
1<
1V
1_
1e
1T
1Q
1G
1J
1.
1+
#120000
0!
0%
0<
0A
0`
0V
#130000
1!
1<
1V
0a
0R
0I
0-
#140000
0!
0#
0"
0<
0?
0>
0f
0d
0V
#150000
1!
1<
1V
0e
0g
0U
0T
0F
0G
0+
0*
#160000
0!
1"
0&
0'
0$
0)
0<
0E
0C
0B
0@
1>
1f
0b
0^
0\
0W
0V
#170000
1!
1<
1V
0Y
0]
0_
0c
1g
1U
0S
0Q
0P
0N
1F
0H
0J
0K
0M
01
0/
0.
0,
1*
#180000
0!
0"
1'
1%
02
0<
1C
1A
0>
0=
0X
0f
1`
1\
0V
#190000
1!
1<
1V
#200000
0!
1"
0'
0%
12
1$
1)
1#
0(
0<
1E
0D
0C
0A
1@
1?
1>
1=
1X
1f
1d
1b
0`
0\
0Z
1W
0V
#210000
1!
1<
1V
1Y
0[
1c
1e
1T
1S
0O
1N
1G
1H
0L
1M
11
00
1,
1+
#220000
0!
0"
1'
1%
02
1(
1&
0<
1D
1C
1B
1A
0>
0=
0X
0f
1`
1^
1\
1Z
0V
#230000
1!
1<
1V
#240000
0!
1"
0%
12
0&
0#
0<
0B
0A
0?
1>
1=
1X
1f
0d
0`
0^
0V
#250000
1!
1<
1V
1[
1]
0e
0T
1P
1O
0G
1K
1L
10
1/
0+
#260000
0!
0"
1%
02
1&
1#
0$
0)
0<
0E
1B
1A
0@
1?
0>
0=
0X
0f
1d
0b
1`
1^
0W
0V
#270000
1!
1<
1V
#280000
0!
1"
0'
0<
0C
1>
1f
0\
0V
#290000
1!
1<
1V
#300000
0!
0"
1'
12
0#
1)
0(
0<
1E
0D
1C
0?
0>
1=
1X
0f
0d
1\
0Z
1W
0V
#310000
1!
1<
1V
0[
1_
1a
0c
0g
0U
0S
1R
1Q
0O
0F
0H
1I
1J
0L
00
1.
1-
0,
0*
#320000
0!
02
1#
0)
0%
0&
1$
0<
0=
0E
0B
0A
1@
1?
1d
1b
0`
0^
0W
0X
0V
#330000
1!
1<
1V
#340000
0!
1%
1&
0'
0<
0C
1B
1A
1`
1^
0\
0V
#350000
1!
1<
1V
#360000
0!
0%
0&
1'
0#
1)
0$
0<
1E
1C
0B
0A
0@
0?
0d
0b
0`
0^
1\
1W
0V
#370000
1!
1<
1V
#380000
0!
1#
1"
0<
1?
1>
1f
1d
0V
#390000
1!
1<
1V
#400000
0!
0"
1%
12
0<
1A
0>
1=
1X
0f
1`
0V
#410000
1!
1<
1V
0_
1e
1T
0Q
1G
0J
0.
1+
#420000
0!
1$
0<
1@
1b
0V
#430000
1!
1<
1V
1c
1S
1H
1,
#440000
0!
0$
0%
02
0'
0)
0<
0E
0C
0A
0@
0=
0X
0b
0`
0\
0W
0V
#450000
1!
1<
1V
#460000
0!
1%
1)
1"
0#
0<
1E
1A
0?
1>
1f
0d
1`
1W
0V
#470000
1!
1<
1V
#480000
0!
0"
12
0<
0>
1=
1X
0f
0V
#490000
1!
1<
1V
0]
0c
0e
0T
0S
0P
0G
0H
0K
0/
0,
0+
#500000
0!
1"
0)
1$
1(
0<
0E
1D
1@
1>
1f
1b
1Z
0W
0V
#510000
1!
1<
1V
0Y
1[
1c
1g
1U
1S
1O
0N
1F
1H
1L
0M
01
10
1,
1*
#520000
0!
0"
1)
0(
1#
1'
0<
1E
0D
1C
1?
0>
0f
1d
1\
0Z
1W
0V
#530000
1!
1<
1V
1Y
0[
1]
1e
0g
0U
1T
1P
0O
1N
0F
1G
1K
0L
1M
11
00
1/
1+
0*
#540000
0!
1"
0)
1(
0#
0%
0<
0E
1D
0A
0?
1>
1f
0d
0`
1Z
0W
0V
#550000
1!
1<
1V
0Y
1[
0a
0e
1g
1U
0T
0R
1O
0N
1F
0G
0I
1L
0M
01
10
0-
0+
1*
#560000
0!
0"
1#
1%
0'
0$
02
1&
0<
0C
1B
1A
0@
1?
0>
0=
0X
0f
1d
0b
1`
1^
0\
0V
#570000
1!
1<
1V
#580000
0!
1"
0#
1$
1)
0<
1E
1@
0?
1>
1f
0d
1b
1W
0V
#590000
1!
1<
1V
#600000
0!
0)
1'
12
0&
0<
0E
1C
0B
1=
1X
0^
1\
0W
0V
#610000
1!
1<
1V
1a
1R
1I
1-
#620000
0!
1)
02
0%
0<
1E
0A
0=
0X
0`
1W
0V
#630000
1!
1<
1V
#640000
0!
1%
1&
1#
0(
0<
0D
1B
1A
1?
1d
1`
1^
0Z
0V
#650000
1!
1<
1V
#660000
0!
0%
0&
0#
1(
12
0'
0"
0<
1D
0C
0B
0A
0?
0>
1=
1X
0f
0d
0`
0^
0\
1Z
0V
#670000
1!
1<
1V
1Y
0]
0a
0g
0U
0R
0P
1N
0F
0I
0K
1M
11
0/
0-
0*
#680000
0!
0(
1'
1"
0)
0$
0<
0E
0D
1C
0@
1>
1f
0b
1\
0Z
0W
0V
#690000
1!
1<
1V
0Y
0[
1]
0c
1g
1U
0S
1P
0O
0N
1F
0H
1K
0L
0M
01
00
1/
0,
1*
#700000
0!
1(
0'
1)
1$
1&
0<
1E
1D
0C
1B
1@
1b
1^
0\
1Z
1W
0V
#710000
1!
1<
1V
1Y
1[
0]
1_
1c
1S
1Q
0P
1O
1N
1H
1J
0K
1L
1M
11
10
0/
1.
1,
#720000
0!
1'
0&
0"
1%
02
0<
1C
0B
1A
0>
0=
0X
0f
1`
0^
1\
0V
#730000
1!
1<
1V
#740000
0!
0'
0%
12
0$
0<
0C
0A
0@
1=
1X
0b
0`
0\
0V
#750000
1!
1<
1V
0_
0c
0g
0U
0S
0Q
0F
0H
0J
0.
0,
0*
#760000
0!
1'
1%
1$
1&
1"
0(
0)
0<
0E
0D
1C
1B
1A
1@
1>
1f
1b
1`
1^
1\
0Z
0W
0V
#770000
1!
1<
1V
0Y
0[
1]
1_
1a
1c
1g
1U
1S
1R
1Q
1P
0O
0N
1F
1H
1I
1J
1K
0L
0M
01
00
1/
1.
1-
1,
1*
#780000
0!
0'
0"
1(
1)
0<
1E
1D
0C
0>
0f
0\
1Z
1W
0V
#790000
1!
1<
1V
1Y
1[
0]
0g
0U
0P
1O
1N
0F
0K
1L
1M
11
10
0/
0*
#800000
0!
1'
0&
1#
0<
1C
0B
1?
1d
0^
1\
0V
#810000
1!
1<
1V
1]
0_
1e
1T
0Q
1P
1G
0J
1K
1/
0.
1+
#820000
0!
0'
1&
1"
0%
0$
0<
0C
1B
0A
0@
1>
1f
0b
0`
1^
0\
0V
#830000
1!
1<
1V
0]
1_
0a
0c
1g
1U
0S
0R
1Q
0P
1F
0H
0I
1J
0K
0/
1.
0-
0,
1*
#840000
0!
0"
1$
0#
0)
0<
0E
1@
0?
0>
0f
0d
1b
0W
0V
#850000
1!
1<
1V
0Y
1c
0e
0g
0U
0T
1S
0N
0F
0G
1H
0M
01
1,
0+
0*
#860000
0!
0$
1#
1)
1'
0&
0(
02
0<
1E
0D
1C
0B
0@
1?
0=
0X
1d
0b
0^
1\
0Z
1W
0V
#870000
1!
1<
1V
#880000
0!
0#
1&
1(
12
1"
0<
1D
1B
0?
1>
1=
1X
1f
0d
1^
1Z
0V
#890000
1!
1<
1V
1Y
1]
0c
1g
1U
0S
1P
1N
1F
0H
1K
1M
11
1/
0,
1*
#900000
0!
1#
02
0'
0<
0C
1?
0=
0X
1d
0\
0V
#910000
1!
1<
1V
#920000
0!
1'
0(
1$
0)
0<
0E
0D
1C
1@
1b
1\
0Z
0W
0V
#930000
1!
1<
1V
#940000
0!
0'
1(
1)
0#
12
1%
0<
1E
1D
0C
1A
0?
1=
1X
0d
1`
0\
1Z
1W
0V
#950000
1!
1<
1V
0]
1a
1c
1S
1R
0P
1H
1I
0K
0/
1-
1,
#960000
0!
0)
1#
0%
0&
0<
0E
0B
0A
1?
1d
0`
0^
0W
0V
#970000
1!
1<
1V
0Y
0_
0a
1e
1T
0R
0Q
0N
1G
0I
0J
0M
01
0.
0-
1+
#980000
0!
1)
0#
1%
1&
0<
1E
1B
1A
0?
0d
1`
1^
1W
0V
#990000
1!
1<
1V
1Y
1_
1a
0e
0T
1R
1Q
1N
0G
1I
1J
1M
11
1.
1-
0+
