ProjetoFinal/Set/simulation/qsim/Set.msim.vcd
$comment
	File created using the following command:
		vcd file Set.msim.vcd -direction
$end
$date
	Fri Jun 17 14:35:05 2022
$end
$version
	ModelSim Version 2020.1
$end
$timescale
	1ps
$end

$scope module set_vhd_vec_tst $end
$var wire 1 ! CLOCK_50 $end
$var wire 1 " HEX0 [6] $end
$var wire 1 # HEX0 [5] $end
$var wire 1 $ HEX0 [4] $end
$var wire 1 % HEX0 [3] $end
$var wire 1 & HEX0 [2] $end
$var wire 1 ' HEX0 [1] $end
$var wire 1 ( HEX0 [0] $end
$var wire 1 ) HEX1 [6] $end
$var wire 1 * HEX1 [5] $end
$var wire 1 + HEX1 [4] $end
$var wire 1 , HEX1 [3] $end
$var wire 1 - HEX1 [2] $end
$var wire 1 . HEX1 [1] $end
$var wire 1 / HEX1 [0] $end
$var wire 1 0 s_gamewinner_A_jogo_normal $end
$var wire 1 1 s_gamewinner_A_tiebreak $end
$var wire 1 2 s_gamewinner_B_jogo_normal $end
$var wire 1 3 s_gamewinner_B_tiebreak $end

$scope module i1 $end
$var wire 1 4 gnd $end
$var wire 1 5 vcc $end
$var wire 1 6 unknown $end
$var wire 1 7 devoe $end
$var wire 1 8 devclrn $end
$var wire 1 9 devpor $end
$var wire 1 : ww_devoe $end
$var wire 1 ; ww_devclrn $end
$var wire 1 < ww_devpor $end
$var wire 1 = ww_CLOCK_50 $end
$var wire 1 > ww_s_gamewinner_A_jogo_normal $end
$var wire 1 ? ww_s_gamewinner_A_tiebreak $end
$var wire 1 @ ww_s_gamewinner_B_jogo_normal $end
$var wire 1 A ww_s_gamewinner_B_tiebreak $end
$var wire 1 B ww_HEX0 [6] $end
$var wire 1 C ww_HEX0 [5] $end
$var wire 1 D ww_HEX0 [4] $end
$var wire 1 E ww_HEX0 [3] $end
$var wire 1 F ww_HEX0 [2] $end
$var wire 1 G ww_HEX0 [1] $end
$var wire 1 H ww_HEX0 [0] $end
$var wire 1 I ww_HEX1 [6] $end
$var wire 1 J ww_HEX1 [5] $end
$var wire 1 K ww_HEX1 [4] $end
$var wire 1 L ww_HEX1 [3] $end
$var wire 1 M ww_HEX1 [2] $end
$var wire 1 N ww_HEX1 [1] $end
$var wire 1 O ww_HEX1 [0] $end
$var wire 1 P \CLOCK_50~inputclkctrl_INCLK_bus\ [3] $end
$var wire 1 Q \CLOCK_50~inputclkctrl_INCLK_bus\ [2] $end
$var wire 1 R \CLOCK_50~inputclkctrl_INCLK_bus\ [1] $end
$var wire 1 S \CLOCK_50~inputclkctrl_INCLK_bus\ [0] $end
$var wire 1 T \HEX0[0]~output_o\ $end
$var wire 1 U \HEX0[1]~output_o\ $end
$var wire 1 V \HEX0[2]~output_o\ $end
$var wire 1 W \HEX0[3]~output_o\ $end
$var wire 1 X \HEX0[4]~output_o\ $end
$var wire 1 Y \HEX0[5]~output_o\ $end
$var wire 1 Z \HEX0[6]~output_o\ $end
$var wire 1 [ \HEX1[0]~output_o\ $end
$var wire 1 \ \HEX1[1]~output_o\ $end
$var wire 1 ] \HEX1[2]~output_o\ $end
$var wire 1 ^ \HEX1[3]~output_o\ $end
$var wire 1 _ \HEX1[4]~output_o\ $end
$var wire 1 ` \HEX1[5]~output_o\ $end
$var wire 1 a \HEX1[6]~output_o\ $end
$var wire 1 b \CLOCK_50~input_o\ $end
$var wire 1 c \CLOCK_50~inputclkctrl_outclk\ $end
$var wire 1 d \s_gamewinner_B_jogo_normal~input_o\ $end
$var wire 1 e \s_gamewinner_A_jogo_normal~input_o\ $end
$var wire 1 f \s_gamewinner_A_tiebreak~input_o\ $end
$var wire 1 g \counter_A_Set|s_counter_out~0_combout\ $end
$var wire 1 h \counter_A_Set|s_counter_out~1_combout\ $end
$var wire 1 i \counter_A_Set|s_counter_out[3]~2_combout\ $end
$var wire 1 j \counter_A_Set|s_counter_out~3_combout\ $end
$var wire 1 k \counter_A_Set|Add0~0_combout\ $end
$var wire 1 l \counter_A_Set|s_counter_out~4_combout\ $end
$var wire 1 m \counter_B_Set|Add0~0_combout\ $end
$var wire 1 n \counter_B_Set|s_counter_out~4_combout\ $end
$var wire 1 o \s_gamewinner_B_tiebreak~input_o\ $end
$var wire 1 p \counter_B_Set|s_counter_out[3]~2_combout\ $end
$var wire 1 q \mef_set|Equal1~0_combout\ $end
$var wire 1 r \mef_set|comb_proc~0_combout\ $end
$var wire 1 s \mef_set|next_state~3_combout\ $end
$var wire 1 t \mef_set|next_state~4_combout\ $end
$var wire 1 u \mef_set|comb_proc~1_combout\ $end
$var wire 1 v \mef_set|next_state~0_combout\ $end
$var wire 1 w \mef_set|next_state~1_combout\ $end
$var wire 1 x \mef_set|next_state~2_combout\ $end
$var wire 1 y \mef_set|Selector1~3_combout\ $end
$var wire 1 z \mef_set|Selector0~0_combout\ $end
$var wire 1 { \mef_set|current_state.S0~q\ $end
$var wire 1 | \mef_set|Equal0~0_combout\ $end
$var wire 1 } \mef_set|Selector1~1_combout\ $end
$var wire 1 ~ \mef_set|Selector1~0_combout\ $end
$var wire 1 !! \mef_set|Selector1~2_combout\ $end
$var wire 1 "! \mef_set|current_state.S1~q\ $end
$var wire 1 #! \mef_set|Selector2~0_combout\ $end
$var wire 1 $! \mef_set|Selector2~1_combout\ $end
$var wire 1 %! \mef_set|current_state.S2~q\ $end
$var wire 1 &! \counter_B_Set|s_counter_out~0_combout\ $end
$var wire 1 '! \counter_B_Set|s_counter_out~1_combout\ $end
$var wire 1 (! \counter_B_Set|s_counter_out~3_combout\ $end
$var wire 1 )! \hex_display_set|Mux13~0_combout\ $end
$var wire 1 *! \hex_display_set|Mux12~0_combout\ $end
$var wire 1 +! \hex_display_set|Mux11~0_combout\ $end
$var wire 1 ,! \hex_display_set|Mux10~0_combout\ $end
$var wire 1 -! \hex_display_set|Mux9~0_combout\ $end
$var wire 1 .! \hex_display_set|Mux8~0_combout\ $end
$var wire 1 /! \hex_display_set|Mux7~0_combout\ $end
$var wire 1 0! \hex_display_set|Mux6~0_combout\ $end
$var wire 1 1! \hex_display_set|Mux5~0_combout\ $end
$var wire 1 2! \hex_display_set|Mux4~0_combout\ $end
$var wire 1 3! \hex_display_set|Mux3~0_combout\ $end
$var wire 1 4! \hex_display_set|Mux2~0_combout\ $end
$var wire 1 5! \hex_display_set|Mux1~0_combout\ $end
$var wire 1 6! \hex_display_set|Mux0~0_combout\ $end
$var wire 1 7! \counter_B_Set|s_counter_out\ [3] $end
$var wire 1 8! \counter_B_Set|s_counter_out\ [2] $end
$var wire 1 9! \counter_B_Set|s_counter_out\ [1] $end
$var wire 1 :! \counter_B_Set|s_counter_out\ [0] $end
$var wire 1 ;! \counter_A_Set|s_counter_out\ [3] $end
$var wire 1 <! \counter_A_Set|s_counter_out\ [2] $end
$var wire 1 =! \counter_A_Set|s_counter_out\ [1] $end
$var wire 1 >! \counter_A_Set|s_counter_out\ [0] $end
$var wire 1 ?! \hex_display_set|ALT_INV_Mux0~0_combout\ $end
$var wire 1 @! \hex_display_set|ALT_INV_Mux1~0_combout\ $end
$var wire 1 A! \hex_display_set|ALT_INV_Mux2~0_combout\ $end
$var wire 1 B! \hex_display_set|ALT_INV_Mux3~0_combout\ $end
$var wire 1 C! \hex_display_set|ALT_INV_Mux4~0_combout\ $end
$var wire 1 D! \hex_display_set|ALT_INV_Mux5~0_combout\ $end
$var wire 1 E! \hex_display_set|ALT_INV_Mux6~0_combout\ $end
$var wire 1 F! \hex_display_set|ALT_INV_Mux7~0_combout\ $end
$var wire 1 G! \hex_display_set|ALT_INV_Mux8~0_combout\ $end
$var wire 1 H! \hex_display_set|ALT_INV_Mux9~0_combout\ $end
$var wire 1 I! \hex_display_set|ALT_INV_Mux10~0_combout\ $end
$var wire 1 J! \hex_display_set|ALT_INV_Mux11~0_combout\ $end
$var wire 1 K! \hex_display_set|ALT_INV_Mux12~0_combout\ $end
$var wire 1 L! \hex_display_set|ALT_INV_Mux13~0_combout\ $end
$upscope $end
$upscope $end
$enddefinitions $end
#0
$dumpvars
0!
10
11
12
13
04
15
x6
17
18
19
1:
1;
1<
0=
1>
1?
1@
1A
0T
0U
0V
0W
0X
0Y
1Z
0[
0\
0]
0^
0_
0`
1a
0b
0c
1d
1e
1f
0g
1h
0i
0j
0k
0l
0m
0n
1o
0p
0q
0r
0s
0t
0u
1v
0w
0x
1y
0z
0{
0|
0}
0~
0!!
0"!
0#!
0$!
0%!
0&!
1'!
0(!
1)!
1*!
1+!
1,!
1-!
1.!
0/!
10!
11!
12!
13!
14!
15!
06!
1?!
0@!
0A!
0B!
0C!
0D!
0E!
1F!
0G!
0H!
0I!
0J!
0K!
0L!
1"
0#
0$
0%
0&
0'
0(
1)
0*
0+
0,
0-
0.
0/
1B
0C
0D
0E
0F
0G
0H
1I
0J
0K
0L
0M
0N
0O
07!
08!
09!
0:!
0;!
0<!
0=!
0>!
1P
1Q
1R
0S
$end
#15000
00
02
0>
0@
0d
0e
#20000
1!
1=
1b
1S
1c
#30000
12
01
03
1@
0?
0A
0o
0f
1d
1g
1i
#40000
0!
0=
0b
0S
0c
#45000
02
0@
0d
1p
1&!
#60000
1!
11
1=
1?
1f
1b
1S
0g
0i
1c
1:!
19!
0&!
0)!
0,!
0-!
0.!
1G!
1H!
1I!
1L!
1T
1W
1X
1Y
1H
1E
1D
1C
1(
1%
1$
1#
#75000
01
12
10
0?
1@
1>
1e
1d
0f
0p
1&!
#80000
0!
0=
0b
0S
0c
#90000
02
0@
0d
1p
0&!
#100000
1!
1=
1b
1S
1c
0:!
1&!
0'!
1(!
1)!
0+!
1,!
1-!
1/!
0F!
0H!
0I!
1J!
0L!
0T
1V
0W
0X
0Z
0H
1F
0E
0D
0B
0(
1&
0%
0$
0"
#105000
13
1A
1o
0p
0&!
#120000
0!
00
0=
0>
0e
0b
0S
1g
1i
0c
#135000
03
0A
0o
1p
1&!
#140000
1!
1=
1b
1S
1c
1>!
1=!
1:!
09!
18!
0&!
1+!
0-!
0g
00!
03!
04!
05!
1@!
1A!
1B!
1E!
1H!
0J!
0V
1X
1[
1^
1_
1`
0F
1D
1O
1L
1K
1J
0&
1$
1/
1,
1+
1*
#150000
12
1@
1d
0p
1&!
#160000
0!
0=
0b
0S
0c
#165000
02
11
0@
1?
1f
0d
1p
0&!
1g
0i
#180000
1!
13
1=
1A
1o
1b
1S
0p
1&!
1c
#195000
03
12
01
0A
1@
0?
0f
1d
0o
0g
1i
#200000
0!
0=
0b
0S
0c
#210000
13
02
11
10
1A
0@
1?
1>
1e
1f
0d
1o
1g
0i
#220000
1!
1=
1b
1S
1c
#225000
03
01
00
0A
0?
0>
0e
0f
0o
1p
0&!
0g
1i
#240000
13
11
0!
12
1A
1?
0=
1@
1d
0b
1f
1o
0S
1g
0i
0p
1&!
0c
#255000
01
10
0?
1>
1e
0f
#260000
1!
1=
1b
1S
1c
#270000
00
03
0>
0A
0o
0e
0g
1i
#280000
0!
0=
0b
0S
0c
#285000
10
13
11
02
1>
1A
1?
0@
0d
1f
1o
1e
1g
0i
#300000
03
01
12
1!
0A
0?
1@
1=
1b
1d
0f
0o
1S
1c
#315000
13
00
1A
0>
0e
1o
0g
1i
#320000
0!
0=
0b
0S
0c
#330000
10
1>
1e
1g
0i
#340000
1!
1=
1b
1S
1c
#345000
00
03
11
0>
0A
1?
1f
0o
0e
#360000
13
01
0!
1A
0?
0=
0b
0f
1o
0S
0g
1i
0c
#375000
10
1>
1e
1g
0i
#380000
1!
1=
1b
1S
1c
#390000
00
03
11
02
0>
0A
1?
0@
0d
1f
0o
0e
1p
0&!
#400000
0!
0=
0b
0S
0c
#405000
01
0?
0f
0g
1i
#420000
1!
10
12
1=
1>
1@
1d
1e
1b
1S
1g
0i
0p
1&!
1c
#435000
00
11
0>
1?
1f
0e
#440000
0!
0=
0b
0S
0c
#450000
10
01
13
1>
0?
1A
1o
0f
1e
#460000
1!
1=
1b
1S
1c
#465000
11
1?
1f
#480000
0!
00
02
0=
0>
0@
0d
0e
0b
0S
0c
#495000
12
01
03
1@
0?
0A
0o
0f
1d
0g
1i
#500000
1!
1=
1b
1S
1c
0>!
1g
0h
1j
10!
02!
13!
14!
16!
0?!
0A!
0B!
1C!
0E!
0[
1]
0^
0_
0a
0O
1M
0L
0K
0I
0/
1-
0,
0+
0)
#510000
11
1?
1f
0g
0i
#520000
0!
0=
0b
0S
0c
#525000
01
02
0?
0@
0d
0f
1g
1i
1p
0&!
#540000
11
1!
1?
1=
1b
1f
1S
0g
0i
1c
0:!
1&!
1'!
0)!
0,!
1.!
0G!
1I!
1L!
1T
1W
0Y
1H
1E
0C
1(
1%
0#
#555000
12
13
1@
1A
1o
1d
0p
0&!
#560000
0!
0=
0b
0S
0c
#570000
02
03
01
10
0@
0A
0?
1>
1e
0f
0o
0d
1p
1&!
#580000
1!
1=
1b
1S
1c
1:!
19!
0&!
1)!
0*!
1,!
0I!
1K!
0L!
0T
1U
0W
0H
1G
0E
0(
1'
0%
#585000
12
11
1@
1?
1f
1d
0p
1&!
#600000
02
01
0!
0@
0?
0=
0b
0f
0d
0S
1p
0&!
0c
#615000
12
13
00
1@
1A
0>
0e
1o
1d
0p
1&!
1g
1i
#620000
1!
1=
1b
1S
1c
1>!
0=!
1<!
0v
0g
12!
04!
1A!
0C!
0]
1_
0M
1K
0-
1+
#630000
02
03
10
0@
0A
1>
1e
0o
0d
1p
0&!
1g
0i
#640000
0!
0=
0b
0S
0c
#645000
12
00
11
1@
0>
1?
1f
0e
1d
0p
1&!
#660000
1!
1=
1b
1S
1c
#675000
10
01
13
1>
0?
1A
1o
0f
1e
#680000
0!
0=
0b
0S
0c
#690000
00
03
02
0>
0A
0@
0d
0o
0e
0g
1i
1p
0&!
#700000
1!
1=
1b
1S
1c
0>!
0:!
1m
1r
1&!
0'!
0(!
1-!
1g
1h
00!
03!
15!
0@!
1B!
1E!
0H!
1t
1n
0y
1$!
0X
1[
1^
0`
1z
0D
1O
1L
0J
0$
1/
1,
0*
#705000
10
12
1>
1@
1d
1e
0g
0i
0p
0&!
#720000
00
02
0!
13
0>
0@
0=
1A
1o
0b
0d
0e
0S
1g
1i
0c
#735000
03
11
0A
1?
1f
0o
1p
1&!
0g
0i
#740000
1!
1=
1b
1S
1c
17!
1{
1%!
1:!
09!
08!
1v
0h
1i
0j
0n
0z
0&!
0$!
1q
0r
1*!
0,!
0-!
0.!
0/!
1F!
1G!
1H!
1I!
0K!
0U
1W
1X
1Y
1Z
0G
1E
1D
1C
1B
0'
1%
1$
1#
1"
#750000
13
1A
1o
#760000
0!
0=
0b
0S
0c
#765000
03
01
12
0A
0?
1@
1d
0f
0o
#780000
13
11
1!
1A
1?
1=
1b
1f
1o
1S
1c
0<!
07!
0{
0%!
0:!
1h
0i
1n
0p
1z
1'!
1$!
0m
0q
1,!
1-!
1.!
10!
13!
14!
06!
1?!
0A!
0B!
0E!
0G!
0H!
0I!
0t
0n
1y
0$!
0W
0X
0Y
0[
0^
0_
1a
0z
0E
0D
0C
0O
0L
0K
1I
0%
0$
0#
0/
0,
0+
1)
#795000
03
01
02
10
0A
0?
0@
1>
1e
0d
0f
0o
1p
1&!
#800000
0!
0=
0b
0S
0c
#810000
00
0>
0e
1g
1i
#820000
1!
1=
1b
1S
1c
1>!
1=!
1:!
19!
0&!
0)!
0,!
0-!
0.!
0g
00!
03!
04!
05!
1@!
1A!
1B!
1E!
1G!
1H!
1I!
1L!
1T
1W
1X
1Y
1[
1^
1_
1`
1H
1E
1D
1C
1O
1L
1K
1J
1(
1%
1$
1#
1/
1,
1+
1*
#825000
10
11
12
1>
1?
1@
1d
1f
1e
1g
0i
0p
1&!
#840000
00
02
0!
13
0>
0@
0=
1A
1o
0b
0d
0e
0S
0c
#855000
10
12
03
1>
1@
0A
0o
1d
1e
#860000
1!
1=
1b
1S
1c
#870000
00
13
0>
1A
1o
0e
#880000
0!
0=
0b
0S
0c
#885000
10
02
01
1>
0@
0?
0f
0d
1e
#900000
12
1!
03
1@
1=
0A
0o
1b
1d
1S
1c
#915000
02
13
00
11
0@
1A
0>
1?
1f
0e
1o
0d
#920000
0!
0=
0b
0S
0c
#930000
12
03
01
1@
0A
0?
0f
0o
1d
0g
1i
#940000
1!
1=
1b
1S
1c
0>!
1g
0h
1j
10!
02!
13!
14!
16!
0?!
0A!
0B!
1C!
0E!
0[
1]
0^
0_
0a
0O
1M
0L
0K
0I
0/
1-
0,
0+
0)
#945000
02
10
0@
1>
1e
0d
1p
0&!
0g
0i
#960000
12
0!
13
11
1@
0=
1A
1?
1f
1o
0b
1d
0S
0p
1&!
0c
#975000
02
03
01
00
0@
0A
0?
0>
0e
0f
0o
0d
1p
0&!
1g
1i
#980000
1!
1=
1b
1S
1c
1>!
0=!
1<!
0:!
1&!
0'!
1(!
1)!
0+!
1,!
1-!
1/!
0g
12!
04!
1A!
0C!
0F!
0H!
0I!
1J!
0L!
0T
1V
0W
0X
0Z
0]
1_
0H
1F
0E
0D
0B
0M
1K
0(
1&
0%
0$
0"
0-
1+
#990000
11
10
1?
1>
1e
1f
1g
0i
