Guiao4/Parte1/simulation/qsim/FlipFlopD_Demo.msim.vcd
$comment
	File created using the following command:
		vcd file FlipFlopD_Demo.msim.vcd -direction
$end
$date
	Mon Apr 11 10:12:40 2022
$end
$version
	ModelSim Version 2020.1
$end
$timescale
	1ps
$end

$scope module flipflopd_vhd_vec_tst $end
$var wire 1 ! clk $end
$var wire 1 " d $end
$var wire 1 # q $end
$var wire 1 $ reset $end
$var wire 1 % set $end

$scope module i1 $end
$var wire 1 & gnd $end
$var wire 1 ' vcc $end
$var wire 1 ( unknown $end
$var wire 1 ) devoe $end
$var wire 1 * devclrn $end
$var wire 1 + devpor $end
$var wire 1 , ww_devoe $end
$var wire 1 - ww_devclrn $end
$var wire 1 . ww_devpor $end
$var wire 1 / ww_clk $end
$var wire 1 0 ww_set $end
$var wire 1 1 ww_reset $end
$var wire 1 2 ww_d $end
$var wire 1 3 ww_q $end
$var wire 1 4 \q~output_o\ $end
$var wire 1 5 \clk~input_o\ $end
$var wire 1 6 \set~input_o\ $end
$var wire 1 7 \d~input_o\ $end
$var wire 1 8 \reset~input_o\ $end
$var wire 1 9 \q~0_combout\ $end
$var wire 1 : \q~reg0_q\ $end
$upscope $end
$upscope $end
$enddefinitions $end
#0
$dumpvars
0!
0"
0#
1$
0%
0&
1'
x(
1)
1*
1+
1,
1-
1.
0/
00
11
02
03
04
05
06
07
18
09
0:
$end
#20000
1!
1%
1/
10
16
15
#30000
0%
1"
00
12
17
06
#40000
1%
0"
0!
0$
10
02
0/
01
08
05
07
16
19
#50000
0%
00
06
09
#60000
1%
1!
1$
10
1/
11
18
15
16
#70000
0%
00
06
#80000
1%
0!
1"
10
0/
12
17
05
16
#90000
0%
0$
00
01
08
06
19
#100000
1!
1/
15
1:
14
13
1#
#120000
0!
1%
1$
0/
10
11
18
16
05
09
#130000
0$
01
08
19
#140000
1$
1!
0%
11
1/
00
06
15
18
09
#150000
0$
01
08
19
#160000
0!
0"
0/
02
07
05
09
#170000
1$
1%
11
10
16
18
#180000
0$
0%
1!
1"
01
00
1/
12
17
15
06
08
0:
19
04
03
0#
#190000
1$
1%
11
10
16
18
09
#200000
0$
0!
0"
01
0/
02
07
05
08
19
#210000
1$
1"
11
12
17
18
09
#220000
1!
1/
15
#230000
0$
01
08
19
#240000
1$
0!
0"
0%
11
0/
02
00
06
07
05
18
09
#260000
1!
1%
1/
10
16
15
#270000
0%
00
06
#280000
1%
0!
0$
10
0/
01
08
05
16
19
#290000
0%
1"
00
12
17
06
#300000
1%
1!
1$
10
1/
11
18
15
16
1:
09
14
13
1#
#310000
0$
01
08
19
#320000
1$
0!
0"
11
0/
02
07
05
18
09
#330000
1"
12
17
#340000
1!
1/
15
0:
04
03
0#
#350000
0"
02
07
#360000
1"
0!
0$
12
0/
01
08
05
17
19
#370000
0%
00
06
#380000
1!
1/
15
1:
14
13
1#
#390000
1%
1$
10
11
18
16
09
#400000
0$
0!
01
0/
05
08
19
#410000
0%
0"
00
02
07
06
09
#420000
1$
1!
11
1/
15
18
0:
04
03
0#
#430000
1"
12
17
#440000
0!
0/
05
#450000
0"
02
07
#460000
1!
0$
1%
1/
01
10
16
08
15
19
#470000
1"
12
17
#480000
0!
0%
0/
00
06
05
#490000
1%
0"
1$
10
02
11
18
07
16
09
#500000
0$
1!
01
1/
15
08
19
#510000
1"
12
17
#520000
0"
1$
0!
02
11
0/
05
18
07
09
#540000
0$
1!
01
1/
15
08
19
#550000
1$
1"
0%
11
12
00
06
17
18
09
#560000
0$
0"
1%
0!
01
02
10
0/
05
16
07
08
19
#570000
1"
0%
12
00
06
17
#580000
0"
1%
1$
1!
02
10
11
1/
15
18
16
07
09
1:
14
13
1#
#590000
1"
0%
12
00
06
17
#600000
0"
0$
0!
02
01
0/
05
08
07
#610000
1"
1$
1%
12
11
10
16
18
17
#620000
1!
1/
15
0:
04
03
0#
#630000
0$
01
08
19
#640000
0!
0"
0/
02
07
05
#650000
1"
12
17
#660000
0"
1!
02
1/
15
07
1:
14
13
1#
#670000
1$
0%
11
00
06
18
09
#680000
1"
0!
12
0/
05
17
#690000
0"
0$
02
01
08
07
#700000
1!
1%
1/
10
16
15
0:
19
04
03
0#
#710000
1"
12
17
#720000
0!
0%
1$
0/
00
11
18
06
05
09
#740000
1!
1%
1/
10
16
15
#760000
0!
0"
0/
02
07
05
#770000
1"
0%
12
00
06
17
#780000
1%
1!
10
1/
15
16
#790000
0%
00
06
#800000
0!
0$
0/
01
08
05
19
#810000
1%
0"
10
02
07
16
#820000
0%
1!
1$
00
1/
11
18
15
06
1:
09
14
13
1#
#830000
1%
0$
10
01
08
16
19
#840000
0%
1$
0!
1"
00
11
0/
12
17
05
18
06
09
#860000
1%
0$
1!
0"
10
01
1/
02
07
15
08
16
0:
19
04
03
0#
#870000
0%
1$
00
11
18
06
09
#880000
1%
0!
10
0/
05
16
#890000
1"
12
17
#900000
1!
0$
1/
01
08
15
19
#910000
1$
0"
11
02
07
18
09
#920000
1"
0!
0%
12
0/
00
06
05
17
#930000
0"
0$
02
01
08
07
#940000
1"
1!
1%
12
1/
10
16
15
17
19
#950000
0"
1$
02
11
18
07
09
#960000
0$
0!
0%
01
0/
00
06
05
08
#970000
1$
11
18
#980000
0$
1!
01
1/
15
08
#990000
1%
10
16
19
