Guiao 1/Aula 1 P.TP/Parte 2/simulation/qsim/GateDemo.msim.vcd
$comment
	File created using the following command:
		vcd file GateDemo.msim.vcd -direction
$end
$date
	Thu Mar 10 12:10:30 2022
$end
$version
	ModelSim Version 2020.1
$end
$timescale
	1ps
$end

$scope module GateDemo_vlg_vec_tst $end
$var reg 2 ! SW [1:0] $end
$var wire 1 " LEDR [0] $end

$scope module i1 $end
$var wire 1 # gnd $end
$var wire 1 $ vcc $end
$var wire 1 % unknown $end
$var tri1 1 & devclrn $end
$var tri1 1 ' devpor $end
$var tri1 1 ( devoe $end
$var wire 1 ) LEDR[0]~output_o $end
$var wire 1 * SW[1]~input_o $end
$var wire 1 + SW[0]~input_o $end
$var wire 1 , AND2_1~combout $end
$upscope $end
$upscope $end
$enddefinitions $end
#0
$dumpvars
b0 !
0"
0#
1$
x%
1&
1'
1(
0)
0*
0+
0,
$end
#80000
b1 !
1+
#180000
b0 !
0+
#240000
b10 !
1*
#340000
b0 !
0*
#420000
b1 !
1+
#480000
b11 !
1*
1,
1)
1"
#560000
b1 !
0*
0,
0)
0"
#620000
b0 !
0+
#660000
b10 !
b11 !
1+
1*
1,
1)
1"
#720000
b1 !
b0 !
0+
0*
0,
0)
0"
#760000
b10 !
1*
#800000
b11 !
1+
1,
1)
1"
#900000
b10 !
0+
0,
0)
0"
#960000
b0 !
0*
