Guiao 1/Aula 1 P.TP/Parte 1/simulation/qsim/GateDemo.msim.vcd
$comment
	File created using the following command:
		vcd file GateDemo.msim.vcd -direction
$end
$date
	Thu Mar 10 09:12:23 2022
$end
$version
	ModelSim Version 2020.1
$end
$timescale
	1ps
$end

$scope module gatedemo_vhd_vec_tst $end
$var wire 1 ! LEDR [0] $end
$var wire 1 " SW [1] $end
$var wire 1 # SW [0] $end

$scope module i1 $end
$var wire 1 $ gnd $end
$var wire 1 % vcc $end
$var wire 1 & unknown $end
$var wire 1 ' devoe $end
$var wire 1 ( devclrn $end
$var wire 1 ) devpor $end
$var wire 1 * ww_devoe $end
$var wire 1 + ww_devclrn $end
$var wire 1 , ww_devpor $end
$var wire 1 - ww_LEDR [0] $end
$var wire 1 . ww_SW [1] $end
$var wire 1 / ww_SW [0] $end
$var wire 1 0 \LEDR[0]~output_o\ $end
$var wire 1 1 \SW[1]~input_o\ $end
$var wire 1 2 \SW[0]~input_o\ $end
$var wire 1 3 \inst~combout\ $end
$upscope $end
$upscope $end
$enddefinitions $end
#0
$dumpvars
0$
1%
x&
1'
1(
1)
1*
1+
1,
00
11
02
03
1"
0#
0-
1.
0/
0!
$end
#50000
1#
1/
12
13
10
1-
1!
#100000
0#
0"
0/
0.
01
02
03
00
0-
0!
#150000
1#
1"
1/
1.
11
12
13
10
1-
1!
#200000
0#
0"
0/
0.
01
02
03
00
0-
0!
#250000
1#
1"
1/
1.
11
12
13
10
1-
1!
#300000
0#
0"
0/
0.
01
02
03
00
0-
0!
#350000
1#
1"
1/
1.
11
12
13
10
1-
1!
#400000
0#
0/
02
03
00
0-
0!
#450000
1#
0"
1/
0.
01
12
#500000
0#
0/
02
#550000
1#
1/
12
#600000
1"
1.
11
13
10
1-
1!
#650000
0"
0.
01
03
00
0-
0!
#700000
1"
1.
11
13
10
1-
1!
#750000
0"
0.
01
03
00
0-
0!
#850000
1"
0#
0/
1.
11
02
#900000
1#
1/
12
13
10
1-
1!
#950000
0#
0"
0/
0.
01
02
03
00
0-
0!
